AllCalo
BunchId
CaloCalFwdTopoTowers
CaloCalFwdTopoTowersAux.
CaloCalFwdTopoTowersAuxDyn.ENG_FRAC_EM
CaloCalFwdTopoTowersAuxDyn.LONGITUDINAL
CaloCalFwdTopoTowersAuxDyn.SIGNIFICANCE
CaloCalTopoClusters
CaloCalTopoClustersAux.
CaloCalTopoClustersAuxDyn.AVG_LAR_Q
CaloCalTopoClustersAuxDyn.AVG_TILE_Q
CaloCalTopoClustersAuxDyn.BADLARQ_FRAC
CaloCalTopoClustersAuxDyn.BadChannelList
CaloCalTopoClustersAuxDyn.CELL_SIGNIFICANCE
CaloCalTopoClustersAuxDyn.CENTER_LAMBDA
CaloCalTopoClustersAuxDyn.CENTER_MAG
CaloCalTopoClustersAuxDyn.CellLink
CaloCalTopoClustersAuxDyn.EM_PROBABILITY
CaloCalTopoClustersAuxDyn.ENG_BAD_CELLS
CaloCalTopoClustersAuxDyn.ENG_FRAC_MAX
CaloCalTopoClustersAuxDyn.ENG_POS
CaloCalTopoClustersAuxDyn.FIRST_ENG_DENS
CaloCalTopoClustersAuxDyn.ISOLATION
CaloCalTopoClustersAuxDyn.LATERAL
CaloCalTopoClustersAuxDyn.LONGITUDINAL
CaloCalTopoClustersAuxDyn.MASS
CaloCalTopoClustersAuxDyn.NCELL_SAMPLING
CaloCalTopoClustersAuxDyn.N_BAD_CELLS
CaloCalTopoClustersAuxDyn.PTD
CaloCalTopoClustersAuxDyn.SECOND_LAMBDA
CaloCalTopoClustersAuxDyn.SECOND_R
CaloCalTopoClustersAuxDyn.SECOND_TIME
CaloCalTopoClustersAuxDyn.SIGNIFICANCE
CaloCalTopoClusters_links
CombinedMuonTrackParticles
CombinedMuonTrackParticlesAux.
CombinedMuonTrackParticlesAuxDyn.TRTdEdx
CombinedMuonTrackParticlesAuxDyn.TRTdEdxUsedHits
CombinedMuonTrackParticlesAuxDyn.alignEffectChId
CombinedMuonTrackParticlesAuxDyn.alignEffectDeltaAngle
CombinedMuonTrackParticlesAuxDyn.alignEffectDeltaTrans
CombinedMuonTrackParticlesAuxDyn.alignEffectSigmaDeltaAngle
CombinedMuonTrackParticlesAuxDyn.alignEffectSigmaDeltaTrans
CombinedMuonTrackParticlesAuxDyn.deltaphi_0
CombinedMuonTrackParticlesAuxDyn.deltaphi_1
CombinedMuonTrackParticlesAuxDyn.deltatheta_0
CombinedMuonTrackParticlesAuxDyn.deltatheta_1
CombinedMuonTrackParticlesAuxDyn.eProbabilityNN
CombinedMuonTrackParticlesAuxDyn.parameterPX
CombinedMuonTrackParticlesAuxDyn.parameterPY
CombinedMuonTrackParticlesAuxDyn.parameterPZ
CombinedMuonTrackParticlesAuxDyn.parameterPosition
CombinedMuonTrackParticlesAuxDyn.parameterX
CombinedMuonTrackParticlesAuxDyn.parameterY
CombinedMuonTrackParticlesAuxDyn.parameterZ
CombinedMuonTrackParticlesAuxDyn.sigmadeltaphi_0
CombinedMuonTrackParticlesAuxDyn.sigmadeltaphi_1
CombinedMuonTrackParticlesAuxDyn.sigmadeltatheta_0
CombinedMuonTrackParticlesAuxDyn.sigmadeltatheta_1
CombinedMuonTrackParticlesAuxDyn.trackLink
CombinedMuonTrackParticlesAuxDyn.trackParameterCovarianceMatrices
CombinedMuonTrackParticlesAuxDyn.truthOrigin
CombinedMuonTrackParticlesAuxDyn.truthParticleLink
CombinedMuonTrackParticlesAuxDyn.truthType
CombinedMuonsLRTTrackParticles
CombinedMuonsLRTTrackParticlesAux.
CombinedMuonsLRTTrackParticlesAuxDyn.TRTdEdx
CombinedMuonsLRTTrackParticlesAuxDyn.TRTdEdxUsedHits
CombinedMuonsLRTTrackParticlesAuxDyn.alignEffectChId
CombinedMuonsLRTTrackParticlesAuxDyn.alignEffectDeltaAngle
CombinedMuonsLRTTrackParticlesAuxDyn.alignEffectDeltaTrans
CombinedMuonsLRTTrackParticlesAuxDyn.alignEffectSigmaDeltaAngle
CombinedMuonsLRTTrackParticlesAuxDyn.alignEffectSigmaDeltaTrans
CombinedMuonsLRTTrackParticlesAuxDyn.deltaphi_0
CombinedMuonsLRTTrackParticlesAuxDyn.deltaphi_1
CombinedMuonsLRTTrackParticlesAuxDyn.deltatheta_0
CombinedMuonsLRTTrackParticlesAuxDyn.deltatheta_1
CombinedMuonsLRTTrackParticlesAuxDyn.eProbabilityNN
CombinedMuonsLRTTrackParticlesAuxDyn.parameterPX
CombinedMuonsLRTTrackParticlesAuxDyn.parameterPY
CombinedMuonsLRTTrackParticlesAuxDyn.parameterPZ
CombinedMuonsLRTTrackParticlesAuxDyn.parameterPosition
CombinedMuonsLRTTrackParticlesAuxDyn.parameterX
CombinedMuonsLRTTrackParticlesAuxDyn.parameterY
CombinedMuonsLRTTrackParticlesAuxDyn.parameterZ
CombinedMuonsLRTTrackParticlesAuxDyn.sigmadeltaphi_0
CombinedMuonsLRTTrackParticlesAuxDyn.sigmadeltaphi_1
CombinedMuonsLRTTrackParticlesAuxDyn.sigmadeltatheta_0
CombinedMuonsLRTTrackParticlesAuxDyn.sigmadeltatheta_1
CombinedMuonsLRTTrackParticlesAuxDyn.trackLink
CombinedMuonsLRTTrackParticlesAuxDyn.trackParameterCovarianceMatrices
CombinedStauTrackParticles
CombinedStauTrackParticlesAux.
CombinedStauTrackParticlesAuxDyn.TRTdEdx
CombinedStauTrackParticlesAuxDyn.TRTdEdxUsedHits
CombinedStauTrackParticlesAuxDyn.alignEffectChId
CombinedStauTrackParticlesAuxDyn.alignEffectDeltaAngle
CombinedStauTrackParticlesAuxDyn.alignEffectDeltaTrans
CombinedStauTrackParticlesAuxDyn.alignEffectSigmaDeltaAngle
CombinedStauTrackParticlesAuxDyn.alignEffectSigmaDeltaTrans
CombinedStauTrackParticlesAuxDyn.deltaphi_0
CombinedStauTrackParticlesAuxDyn.deltaphi_1
CombinedStauTrackParticlesAuxDyn.deltatheta_0
CombinedStauTrackParticlesAuxDyn.deltatheta_1
CombinedStauTrackParticlesAuxDyn.eProbabilityNN
CombinedStauTrackParticlesAuxDyn.parameterPX
CombinedStauTrackParticlesAuxDyn.parameterPY
CombinedStauTrackParticlesAuxDyn.parameterPZ
CombinedStauTrackParticlesAuxDyn.parameterPosition
CombinedStauTrackParticlesAuxDyn.parameterX
CombinedStauTrackParticlesAuxDyn.parameterY
CombinedStauTrackParticlesAuxDyn.parameterZ
CombinedStauTrackParticlesAuxDyn.sigmadeltaphi_0
CombinedStauTrackParticlesAuxDyn.sigmadeltaphi_1
CombinedStauTrackParticlesAuxDyn.sigmadeltatheta_0
CombinedStauTrackParticlesAuxDyn.sigmadeltatheta_1
CombinedStauTrackParticlesAuxDyn.trackLink
CombinedStauTrackParticlesAuxDyn.trackParameterCovarianceMatrices
ConditionsRun
DataHeader
DataHeaderForm
DataHeaderForm
DiTauJets
DiTauJetsAux.
E4prContainer
ESDtoAOD_mems
ESDtoAOD_timings
EVNTtoHITS_timings
ElectronCaloRings
ElectronCaloRingsAux.
ElectronRingSets
ElectronRingSetsAux.
Electrons
ElectronsAux.
ElectronsAuxDyn.LHLoose
ElectronsAuxDyn.LHMedium
ElectronsAuxDyn.LHTight
ElectronsAuxDyn.LHValue
ElectronsAuxDyn.Loose
ElectronsAuxDyn.Medium
ElectronsAuxDyn.Tight
ElectronsAuxDyn.ambiguityLink
ElectronsAuxDyn.ambiguityType
ElectronsAuxDyn.asy1
ElectronsAuxDyn.barys1
ElectronsAuxDyn.caloRingsLinks
ElectronsAuxDyn.chargedFELinks
ElectronsAuxDyn.core57cellsEnergyCorrection
ElectronsAuxDyn.deltaEta1PearDistortion
ElectronsAuxDyn.e1152
ElectronsAuxDyn.e132
ElectronsAuxDyn.e233
ElectronsAuxDyn.e235
ElectronsAuxDyn.e237
ElectronsAuxDyn.e255
ElectronsAuxDyn.e2ts1
ElectronsAuxDyn.e2tsts1
ElectronsAuxDyn.ecore
ElectronsAuxDyn.ehad1
ElectronsAuxDyn.emaxs1
ElectronsAuxDyn.emins1
ElectronsAuxDyn.ethad
ElectronsAuxDyn.ethad1
ElectronsAuxDyn.neutralFELinks
ElectronsAuxDyn.pos
ElectronsAuxDyn.pos7
ElectronsAuxDyn.poscs1
ElectronsAuxDyn.poscs2
ElectronsAuxDyn.ptcone20
ElectronsAuxDyn.ptcone30
ElectronsAuxDyn.ptvarcone20
ElectronsAuxDyn.ptvarcone30
ElectronsAuxDyn.r33over37allcalo
ElectronsAuxDyn.topoetcone20
ElectronsAuxDyn.topoetcone20ptCorrection
ElectronsAuxDyn.topoetcone30
ElectronsAuxDyn.topoetcone30ptCorrection
ElectronsAuxDyn.topoetcone40
ElectronsAuxDyn.topoetcone40ptCorrection
ElectronsAuxDyn.truthOrigin
ElectronsAuxDyn.truthParticleLink
ElectronsAuxDyn.truthType
ElectronsAuxDyn.widths1
ElectronsAuxDyn.widths2
EventFormatStreamAOD
EventInfo
EventInfoAux.
EventInfoAuxDyn.actualInteractionsPerCrossing
EventInfoAuxDyn.averageInteractionsPerCrossing
EventInfoAuxDyn.mcChannelNumber
EventInfoAuxDyn.mcEventNumber
EventInfoAuxDyn.mcEventWeights
EventInfoAuxDyn.streamTagDets
EventInfoAuxDyn.streamTagRobs
EventInfo_p4
EventNumber
EventTime
EventTimeNanoSec
EventWeight
ExtraPolatedMuonsLRTTrackParticles
ExtraPolatedMuonsLRTTrackParticlesAux.
ExtraPolatedMuonsLRTTrackParticlesAuxDyn.TRTdEdx
ExtraPolatedMuonsLRTTrackParticlesAuxDyn.TRTdEdxUsedHits
ExtraPolatedMuonsLRTTrackParticlesAuxDyn.alignEffectChId
ExtraPolatedMuonsLRTTrackParticlesAuxDyn.alignEffectDeltaAngle
ExtraPolatedMuonsLRTTrackParticlesAuxDyn.alignEffectDeltaTrans
ExtraPolatedMuonsLRTTrackParticlesAuxDyn.alignEffectSigmaDeltaAngle
ExtraPolatedMuonsLRTTrackParticlesAuxDyn.alignEffectSigmaDeltaTrans
ExtraPolatedMuonsLRTTrackParticlesAuxDyn.deltaphi_0
ExtraPolatedMuonsLRTTrackParticlesAuxDyn.deltaphi_1
ExtraPolatedMuonsLRTTrackParticlesAuxDyn.deltatheta_0
ExtraPolatedMuonsLRTTrackParticlesAuxDyn.deltatheta_1
ExtraPolatedMuonsLRTTrackParticlesAuxDyn.eProbabilityNN
ExtraPolatedMuonsLRTTrackParticlesAuxDyn.parameterPX
ExtraPolatedMuonsLRTTrackParticlesAuxDyn.parameterPY
ExtraPolatedMuonsLRTTrackParticlesAuxDyn.parameterPZ
ExtraPolatedMuonsLRTTrackParticlesAuxDyn.parameterPosition
ExtraPolatedMuonsLRTTrackParticlesAuxDyn.parameterX
ExtraPolatedMuonsLRTTrackParticlesAuxDyn.parameterY
ExtraPolatedMuonsLRTTrackParticlesAuxDyn.parameterZ
ExtraPolatedMuonsLRTTrackParticlesAuxDyn.sigmadeltaphi_0
ExtraPolatedMuonsLRTTrackParticlesAuxDyn.sigmadeltaphi_1
ExtraPolatedMuonsLRTTrackParticlesAuxDyn.sigmadeltatheta_0
ExtraPolatedMuonsLRTTrackParticlesAuxDyn.sigmadeltatheta_1
ExtraPolatedMuonsLRTTrackParticlesAuxDyn.trackLink
ExtraPolatedMuonsLRTTrackParticlesAuxDyn.trackParameterCovarianceMatrices
ExtrapolatedMuonTrackParticles
ExtrapolatedMuonTrackParticlesAux.
ExtrapolatedMuonTrackParticlesAuxDyn.TRTdEdx
ExtrapolatedMuonTrackParticlesAuxDyn.TRTdEdxUsedHits
ExtrapolatedMuonTrackParticlesAuxDyn.alignEffectChId
ExtrapolatedMuonTrackParticlesAuxDyn.alignEffectDeltaAngle
ExtrapolatedMuonTrackParticlesAuxDyn.alignEffectDeltaTrans
ExtrapolatedMuonTrackParticlesAuxDyn.alignEffectSigmaDeltaAngle
ExtrapolatedMuonTrackParticlesAuxDyn.alignEffectSigmaDeltaTrans
ExtrapolatedMuonTrackParticlesAuxDyn.deltaphi_0
ExtrapolatedMuonTrackParticlesAuxDyn.deltaphi_1
ExtrapolatedMuonTrackParticlesAuxDyn.deltatheta_0
ExtrapolatedMuonTrackParticlesAuxDyn.deltatheta_1
ExtrapolatedMuonTrackParticlesAuxDyn.eProbabilityNN
ExtrapolatedMuonTrackParticlesAuxDyn.parameterPX
ExtrapolatedMuonTrackParticlesAuxDyn.parameterPY
ExtrapolatedMuonTrackParticlesAuxDyn.parameterPZ
ExtrapolatedMuonTrackParticlesAuxDyn.parameterPosition
ExtrapolatedMuonTrackParticlesAuxDyn.parameterX
ExtrapolatedMuonTrackParticlesAuxDyn.parameterY
ExtrapolatedMuonTrackParticlesAuxDyn.parameterZ
ExtrapolatedMuonTrackParticlesAuxDyn.sigmadeltaphi_0
ExtrapolatedMuonTrackParticlesAuxDyn.sigmadeltaphi_1
ExtrapolatedMuonTrackParticlesAuxDyn.sigmadeltatheta_0
ExtrapolatedMuonTrackParticlesAuxDyn.sigmadeltatheta_1
ExtrapolatedMuonTrackParticlesAuxDyn.trackLink
ExtrapolatedMuonTrackParticlesAuxDyn.trackParameterCovarianceMatrices
ExtrapolatedMuonTrackParticlesAuxDyn.truthOrigin
ExtrapolatedMuonTrackParticlesAuxDyn.truthParticleLink
ExtrapolatedMuonTrackParticlesAuxDyn.truthType
ExtrapolatedStauTrackParticles
ExtrapolatedStauTrackParticlesAux.
FileMetaData
FileMetaDataAux.
FileMetaDataAuxDyn.amiTag
FileMetaDataAuxDyn.beamEnergy
FileMetaDataAuxDyn.beamType
FileMetaDataAuxDyn.conditionsTag
FileMetaDataAuxDyn.geometryVersion
FileMetaDataAuxDyn.isDataOverlay
FileMetaDataAuxDyn.mcProcID
FileMetaDataAuxDyn.simFlavour
ForwardElectronClusters
ForwardElectronClustersAux.
ForwardElectronClustersAuxDyn.AVG_LAR_Q
ForwardElectronClustersAuxDyn.AVG_TILE_Q
ForwardElectronClustersAuxDyn.BADLARQ_FRAC
ForwardElectronClustersAuxDyn.BAD_CELLS_CORR_E
ForwardElectronClustersAuxDyn.BadChannelList
ForwardElectronClustersAuxDyn.CELL_SIGNIFICANCE
ForwardElectronClustersAuxDyn.CELL_SIG_SAMPLING
ForwardElectronClustersAuxDyn.CENTER_LAMBDA
ForwardElectronClustersAuxDyn.CENTER_MAG
ForwardElectronClustersAuxDyn.CENTER_X
ForwardElectronClustersAuxDyn.CENTER_Y
ForwardElectronClustersAuxDyn.CENTER_Z
ForwardElectronClustersAuxDyn.CellLink
ForwardElectronClustersAuxDyn.DELTA_ALPHA
ForwardElectronClustersAuxDyn.DELTA_PHI
ForwardElectronClustersAuxDyn.DELTA_THETA
ForwardElectronClustersAuxDyn.DM_WEIGHT
ForwardElectronClustersAuxDyn.EM_PROBABILITY
ForwardElectronClustersAuxDyn.ENG_BAD_CELLS
ForwardElectronClustersAuxDyn.ENG_BAD_HV_CELLS
ForwardElectronClustersAuxDyn.ENG_FRAC_CORE
ForwardElectronClustersAuxDyn.ENG_FRAC_EM
ForwardElectronClustersAuxDyn.ENG_FRAC_MAX
ForwardElectronClustersAuxDyn.ENG_POS
ForwardElectronClustersAuxDyn.FIRST_ENG_DENS
ForwardElectronClustersAuxDyn.FIRST_ETA
ForwardElectronClustersAuxDyn.FIRST_PHI
ForwardElectronClustersAuxDyn.HAD_WEIGHT
ForwardElectronClustersAuxDyn.ISOLATION
ForwardElectronClustersAuxDyn.LATERAL
ForwardElectronClustersAuxDyn.LONGITUDINAL
ForwardElectronClustersAuxDyn.MASS
ForwardElectronClustersAuxDyn.NCELL_SAMPLING
ForwardElectronClustersAuxDyn.N_BAD_CELLS
ForwardElectronClustersAuxDyn.N_BAD_CELLS_CORR
ForwardElectronClustersAuxDyn.N_BAD_HV_CELLS
ForwardElectronClustersAuxDyn.OOC_WEIGHT
ForwardElectronClustersAuxDyn.PTD
ForwardElectronClustersAuxDyn.SECOND_ENG_DENS
ForwardElectronClustersAuxDyn.SECOND_LAMBDA
ForwardElectronClustersAuxDyn.SECOND_R
ForwardElectronClustersAuxDyn.SECOND_TIME
ForwardElectronClustersAuxDyn.SIGNIFICANCE
ForwardElectronClustersAuxDyn.constituentClusterLinks
ForwardElectronClustersAuxDyn.emax_sampl
ForwardElectronClustersAuxDyn.eta_sampl
ForwardElectronClustersAuxDyn.etamax_sampl
ForwardElectronClustersAuxDyn.phi_sampl
ForwardElectronClustersAuxDyn.phimax_sampl
ForwardElectronClusters_links
ForwardElectrons
ForwardElectronsAux.
ForwardElectronsAuxDyn.Loose
ForwardElectronsAuxDyn.Medium
ForwardElectronsAuxDyn.Tight
ForwardElectronsAuxDyn.truthOrigin
ForwardElectronsAuxDyn.truthParticleLink
ForwardElectronsAuxDyn.truthType
GSFConversionVertices
GSFConversionVerticesAux.
GSFConversionVerticesAuxDyn.DR1R2
GSFConversionVerticesAuxDyn.deltaCotThetaTrk
GSFConversionVerticesAuxDyn.deltaInitRadius
GSFConversionVerticesAuxDyn.deltaPhiTracks
GSFConversionVerticesAuxDyn.deltaPhiVtxTrk
GSFConversionVerticesAuxDyn.etaAtCalo
GSFConversionVerticesAuxDyn.mass
GSFConversionVerticesAuxDyn.minRfirstHit
GSFConversionVerticesAuxDyn.minimumDistanceTrk
GSFConversionVerticesAuxDyn.phiAtCalo
GSFConversionVerticesAuxDyn.pt1
GSFConversionVerticesAuxDyn.pt2
GSFConversionVerticesAuxDyn.px
GSFConversionVerticesAuxDyn.py
GSFConversionVerticesAuxDyn.pz
GSFTrackParticles
GSFTrackParticlesAux.
GSFTrackParticlesAuxDyn.QoverPLM
GSFTrackParticlesAuxDyn.TRTdEdx
GSFTrackParticlesAuxDyn.TRTdEdxUsedHits
GSFTrackParticlesAuxDyn.eProbabilityNN
GSFTrackParticlesAuxDyn.originalTrackParticle
GSFTrackParticlesAuxDyn.parameterPX
GSFTrackParticlesAuxDyn.parameterPY
GSFTrackParticlesAuxDyn.parameterPZ
GSFTrackParticlesAuxDyn.parameterPosition
GSFTrackParticlesAuxDyn.parameterX
GSFTrackParticlesAuxDyn.parameterY
GSFTrackParticlesAuxDyn.parameterZ
GSFTrackParticlesAuxDyn.trackLink
GSFTrackParticlesAuxDyn.trackParameterCovarianceMatrices
GSFTrackParticlesAuxDyn.truthMatchProbability
GSFTrackParticlesAuxDyn.truthOrigin
GSFTrackParticlesAuxDyn.truthParticleLink
GSFTrackParticlesAuxDyn.truthType
HITStoRDO_timings
HLTNav_R2ToR3Summary
HLTNav_R2ToR3SummaryAux.
HLTNav_Summary_ESDSlimmed
HLTNav_Summary_ESDSlimmedAux.
HLTNav_Summary_OnlineSlimmed
HLTNav_Summary_OnlineSlimmedAux.
HLT_AFPTrackContainer
HLT_AFPTrackContainerAux.
HLT_AntiKt10EMPFlowCSSKJets_nojcalib_ftf
HLT_AntiKt10EMPFlowCSSKJets_nojcalib_ftfAux.
HLT_AntiKt10EMPFlowCSSKJets_nojcalib_ftfAuxDyn.ActiveArea
HLT_AntiKt10EMPFlowCSSKJets_nojcalib_ftfAuxDyn.ActiveArea4vec_eta
HLT_AntiKt10EMPFlowCSSKJets_nojcalib_ftfAuxDyn.ActiveArea4vec_m
HLT_AntiKt10EMPFlowCSSKJets_nojcalib_ftfAuxDyn.ActiveArea4vec_phi
HLT_AntiKt10EMPFlowCSSKJets_nojcalib_ftfAuxDyn.ActiveArea4vec_pt
HLT_AntiKt10EMPFlowCSSKJets_nojcalib_ftfAuxDyn.AlgorithmType
HLT_AntiKt10EMPFlowCSSKJets_nojcalib_ftfAuxDyn.DetectorEta
HLT_AntiKt10EMPFlowCSSKJets_nojcalib_ftfAuxDyn.DetectorPhi
HLT_AntiKt10EMPFlowCSSKJets_nojcalib_ftfAuxDyn.InputType
HLT_AntiKt10EMPFlowCSSKJets_nojcalib_ftfAuxDyn.JVFCorr
HLT_AntiKt10EMPFlowCSSKJets_nojcalib_ftfAuxDyn.JetConstitScaleMomentum_eta
HLT_AntiKt10EMPFlowCSSKJets_nojcalib_ftfAuxDyn.JetConstitScaleMomentum_m
HLT_AntiKt10EMPFlowCSSKJets_nojcalib_ftfAuxDyn.JetConstitScaleMomentum_phi
HLT_AntiKt10EMPFlowCSSKJets_nojcalib_ftfAuxDyn.JetConstitScaleMomentum_pt
HLT_AntiKt10EMPFlowCSSKJets_nojcalib_ftfAuxDyn.Jvt
HLT_AntiKt10EMPFlowCSSKJets_nojcalib_ftfAuxDyn.JvtRpt
HLT_AntiKt10EMPFlowCSSKJets_nojcalib_ftfAuxDyn.NumTrkPt1000
HLT_AntiKt10EMPFlowCSSKJets_nojcalib_ftfAuxDyn.NumTrkPt500
HLT_AntiKt10EMPFlowCSSKJets_nojcalib_ftfAuxDyn.SizeParameter
HLT_AntiKt10EMPFlowCSSKJets_nojcalib_ftfAuxDyn.SumPtChargedPFOPt500
HLT_AntiKt10EMPFlowCSSKJets_nojcalib_ftfAuxDyn.SumPtTrkPt1000
HLT_AntiKt10EMPFlowCSSKJets_nojcalib_ftfAuxDyn.SumPtTrkPt500
HLT_AntiKt10EMPFlowCSSKJets_nojcalib_ftfAuxDyn.TrackWidthPt1000
HLT_AntiKt10EMPFlowCSSKSoftDropBeta100Zcut10Jets_jes_ftf
HLT_AntiKt10EMPFlowCSSKSoftDropBeta100Zcut10Jets_jes_ftfAux.
HLT_AntiKt10EMPFlowCSSKSoftDropBeta100Zcut10Jets_jes_ftfAuxDyn.AlgorithmType
HLT_AntiKt10EMPFlowCSSKSoftDropBeta100Zcut10Jets_jes_ftfAuxDyn.DetectorEta
HLT_AntiKt10EMPFlowCSSKSoftDropBeta100Zcut10Jets_jes_ftfAuxDyn.DetectorPhi
HLT_AntiKt10EMPFlowCSSKSoftDropBeta100Zcut10Jets_jes_ftfAuxDyn.InputType
HLT_AntiKt10EMPFlowCSSKSoftDropBeta100Zcut10Jets_jes_ftfAuxDyn.JetConstitScaleMomentum_eta
HLT_AntiKt10EMPFlowCSSKSoftDropBeta100Zcut10Jets_jes_ftfAuxDyn.JetConstitScaleMomentum_m
HLT_AntiKt10EMPFlowCSSKSoftDropBeta100Zcut10Jets_jes_ftfAuxDyn.JetConstitScaleMomentum_phi
HLT_AntiKt10EMPFlowCSSKSoftDropBeta100Zcut10Jets_jes_ftfAuxDyn.JetConstitScaleMomentum_pt
HLT_AntiKt10EMPFlowCSSKSoftDropBeta100Zcut10Jets_jes_ftfAuxDyn.JetEtaJESScaleMomentum_eta
HLT_AntiKt10EMPFlowCSSKSoftDropBeta100Zcut10Jets_jes_ftfAuxDyn.JetEtaJESScaleMomentum_m
HLT_AntiKt10EMPFlowCSSKSoftDropBeta100Zcut10Jets_jes_ftfAuxDyn.JetEtaJESScaleMomentum_phi
HLT_AntiKt10EMPFlowCSSKSoftDropBeta100Zcut10Jets_jes_ftfAuxDyn.JetEtaJESScaleMomentum_pt
HLT_AntiKt10EMPFlowCSSKSoftDropBeta100Zcut10Jets_jes_ftfAuxDyn.SizeParameter
HLT_AntiKt10EMPFlowCSSKSoftDropBeta100Zcut10Jets_nojcalib_ftf
HLT_AntiKt10EMPFlowCSSKSoftDropBeta100Zcut10Jets_nojcalib_ftfAux.
HLT_AntiKt10EMPFlowCSSKSoftDropBeta100Zcut10Jets_nojcalib_ftfAuxDyn.AlgorithmType
HLT_AntiKt10EMPFlowCSSKSoftDropBeta100Zcut10Jets_nojcalib_ftfAuxDyn.InputType
HLT_AntiKt10EMPFlowCSSKSoftDropBeta100Zcut10Jets_nojcalib_ftfAuxDyn.JetConstitScaleMomentum_eta
HLT_AntiKt10EMPFlowCSSKSoftDropBeta100Zcut10Jets_nojcalib_ftfAuxDyn.JetConstitScaleMomentum_m
HLT_AntiKt10EMPFlowCSSKSoftDropBeta100Zcut10Jets_nojcalib_ftfAuxDyn.JetConstitScaleMomentum_phi
HLT_AntiKt10EMPFlowCSSKSoftDropBeta100Zcut10Jets_nojcalib_ftfAuxDyn.JetConstitScaleMomentum_pt
HLT_AntiKt10EMPFlowCSSKSoftDropBeta100Zcut10Jets_nojcalib_ftfAuxDyn.SizeParameter
HLT_AntiKt10EMPFlowJets_nojcalib_ftf
HLT_AntiKt10EMPFlowJets_nojcalib_ftfAux.
HLT_AntiKt10EMPFlowJets_nojcalib_ftfAuxDyn.ActiveArea
HLT_AntiKt10EMPFlowJets_nojcalib_ftfAuxDyn.ActiveArea4vec_eta
HLT_AntiKt10EMPFlowJets_nojcalib_ftfAuxDyn.ActiveArea4vec_m
HLT_AntiKt10EMPFlowJets_nojcalib_ftfAuxDyn.ActiveArea4vec_phi
HLT_AntiKt10EMPFlowJets_nojcalib_ftfAuxDyn.ActiveArea4vec_pt
HLT_AntiKt10EMPFlowJets_nojcalib_ftfAuxDyn.AlgorithmType
HLT_AntiKt10EMPFlowJets_nojcalib_ftfAuxDyn.DetectorEta
HLT_AntiKt10EMPFlowJets_nojcalib_ftfAuxDyn.DetectorPhi
HLT_AntiKt10EMPFlowJets_nojcalib_ftfAuxDyn.InputType
HLT_AntiKt10EMPFlowJets_nojcalib_ftfAuxDyn.JVFCorr
HLT_AntiKt10EMPFlowJets_nojcalib_ftfAuxDyn.JetConstitScaleMomentum_eta
HLT_AntiKt10EMPFlowJets_nojcalib_ftfAuxDyn.JetConstitScaleMomentum_m
HLT_AntiKt10EMPFlowJets_nojcalib_ftfAuxDyn.JetConstitScaleMomentum_phi
HLT_AntiKt10EMPFlowJets_nojcalib_ftfAuxDyn.JetConstitScaleMomentum_pt
HLT_AntiKt10EMPFlowJets_nojcalib_ftfAuxDyn.Jvt
HLT_AntiKt10EMPFlowJets_nojcalib_ftfAuxDyn.JvtRpt
HLT_AntiKt10EMPFlowJets_nojcalib_ftfAuxDyn.NumTrkPt1000
HLT_AntiKt10EMPFlowJets_nojcalib_ftfAuxDyn.NumTrkPt500
HLT_AntiKt10EMPFlowJets_nojcalib_ftfAuxDyn.SizeParameter
HLT_AntiKt10EMPFlowJets_nojcalib_ftfAuxDyn.SumPtChargedPFOPt500
HLT_AntiKt10EMPFlowJets_nojcalib_ftfAuxDyn.SumPtTrkPt1000
HLT_AntiKt10EMPFlowJets_nojcalib_ftfAuxDyn.SumPtTrkPt500
HLT_AntiKt10EMPFlowJets_nojcalib_ftfAuxDyn.TrackWidthPt1000
HLT_AntiKt10EMPFlowSoftDropBeta100Zcut10Jets_nojcalib_ftf
HLT_AntiKt10EMPFlowSoftDropBeta100Zcut10Jets_nojcalib_ftfAux.
HLT_AntiKt10EMPFlowSoftDropBeta100Zcut10Jets_nojcalib_ftfAuxDyn.AlgorithmType
HLT_AntiKt10EMPFlowSoftDropBeta100Zcut10Jets_nojcalib_ftfAuxDyn.InputType
HLT_AntiKt10EMPFlowSoftDropBeta100Zcut10Jets_nojcalib_ftfAuxDyn.JetConstitScaleMomentum_eta
HLT_AntiKt10EMPFlowSoftDropBeta100Zcut10Jets_nojcalib_ftfAuxDyn.JetConstitScaleMomentum_m
HLT_AntiKt10EMPFlowSoftDropBeta100Zcut10Jets_nojcalib_ftfAuxDyn.JetConstitScaleMomentum_phi
HLT_AntiKt10EMPFlowSoftDropBeta100Zcut10Jets_nojcalib_ftfAuxDyn.JetConstitScaleMomentum_pt
HLT_AntiKt10EMPFlowSoftDropBeta100Zcut10Jets_nojcalib_ftfAuxDyn.SizeParameter
HLT_AntiKt10EMTopoRCJets_subjesIS
HLT_AntiKt10EMTopoRCJets_subjesISAux.
HLT_AntiKt10EMTopoRCJets_subjesISAuxDyn.ActiveArea
HLT_AntiKt10EMTopoRCJets_subjesISAuxDyn.ActiveArea4vec_eta
HLT_AntiKt10EMTopoRCJets_subjesISAuxDyn.ActiveArea4vec_m
HLT_AntiKt10EMTopoRCJets_subjesISAuxDyn.ActiveArea4vec_phi
HLT_AntiKt10EMTopoRCJets_subjesISAuxDyn.ActiveArea4vec_pt
HLT_AntiKt10EMTopoRCJets_subjesISAuxDyn.AlgorithmType
HLT_AntiKt10EMTopoRCJets_subjesISAuxDyn.InputType
HLT_AntiKt10EMTopoRCJets_subjesISAuxDyn.JetConstitScaleMomentum_eta
HLT_AntiKt10EMTopoRCJets_subjesISAuxDyn.JetConstitScaleMomentum_m
HLT_AntiKt10EMTopoRCJets_subjesISAuxDyn.JetConstitScaleMomentum_phi
HLT_AntiKt10EMTopoRCJets_subjesISAuxDyn.JetConstitScaleMomentum_pt
HLT_AntiKt10EMTopoRCJets_subjesISAuxDyn.SizeParameter
HLT_AntiKt10LCTopoJets_nojcalib
HLT_AntiKt10LCTopoJets_nojcalibAux.
HLT_AntiKt10LCTopoJets_nojcalibAuxDyn.ActiveArea
HLT_AntiKt10LCTopoJets_nojcalibAuxDyn.ActiveArea4vec_eta
HLT_AntiKt10LCTopoJets_nojcalibAuxDyn.ActiveArea4vec_m
HLT_AntiKt10LCTopoJets_nojcalibAuxDyn.ActiveArea4vec_phi
HLT_AntiKt10LCTopoJets_nojcalibAuxDyn.ActiveArea4vec_pt
HLT_AntiKt10LCTopoJets_nojcalibAuxDyn.AlgorithmType
HLT_AntiKt10LCTopoJets_nojcalibAuxDyn.DetectorEta
HLT_AntiKt10LCTopoJets_nojcalibAuxDyn.DetectorPhi
HLT_AntiKt10LCTopoJets_nojcalibAuxDyn.InputType
HLT_AntiKt10LCTopoJets_nojcalibAuxDyn.JetConstitScaleMomentum_eta
HLT_AntiKt10LCTopoJets_nojcalibAuxDyn.JetConstitScaleMomentum_m
HLT_AntiKt10LCTopoJets_nojcalibAuxDyn.JetConstitScaleMomentum_phi
HLT_AntiKt10LCTopoJets_nojcalibAuxDyn.JetConstitScaleMomentum_pt
HLT_AntiKt10LCTopoJets_nojcalibAuxDyn.SizeParameter
HLT_AntiKt10LCTopoJets_subjes
HLT_AntiKt10LCTopoJets_subjesAux.
HLT_AntiKt10LCTopoJets_subjesAuxDyn.JetEtaJESScaleMomentum_eta
HLT_AntiKt10LCTopoJets_subjesAuxDyn.JetEtaJESScaleMomentum_m
HLT_AntiKt10LCTopoJets_subjesAuxDyn.JetEtaJESScaleMomentum_phi
HLT_AntiKt10LCTopoJets_subjesAuxDyn.JetEtaJESScaleMomentum_pt
HLT_AntiKt10LCTopoJets_subjesAuxDyn.JetPileupScaleMomentum_eta
HLT_AntiKt10LCTopoJets_subjesAuxDyn.JetPileupScaleMomentum_m
HLT_AntiKt10LCTopoJets_subjesAuxDyn.JetPileupScaleMomentum_phi
HLT_AntiKt10LCTopoJets_subjesAuxDyn.JetPileupScaleMomentum_pt
HLT_AntiKt10LCTopoJets_subjesAuxDyn.eta
HLT_AntiKt10LCTopoJets_subjesAuxDyn.m
HLT_AntiKt10LCTopoJets_subjesAuxDyn.phi
HLT_AntiKt10LCTopoJets_subjesAuxDyn.pt
HLT_AntiKt10LCTopoSoftDropBeta100Zcut10Jets_nojcalib
HLT_AntiKt10LCTopoSoftDropBeta100Zcut10Jets_nojcalibAux.
HLT_AntiKt10LCTopoSoftDropBeta100Zcut10Jets_nojcalibAuxDyn.AlgorithmType
HLT_AntiKt10LCTopoSoftDropBeta100Zcut10Jets_nojcalibAuxDyn.InputType
HLT_AntiKt10LCTopoSoftDropBeta100Zcut10Jets_nojcalibAuxDyn.JetConstitScaleMomentum_eta
HLT_AntiKt10LCTopoSoftDropBeta100Zcut10Jets_nojcalibAuxDyn.JetConstitScaleMomentum_m
HLT_AntiKt10LCTopoSoftDropBeta100Zcut10Jets_nojcalibAuxDyn.JetConstitScaleMomentum_phi
HLT_AntiKt10LCTopoSoftDropBeta100Zcut10Jets_nojcalibAuxDyn.JetConstitScaleMomentum_pt
HLT_AntiKt10LCTopoSoftDropBeta100Zcut10Jets_nojcalibAuxDyn.SizeParameter
HLT_AntiKt10LCTopoTrimmedPtFrac4SmallR20Jets_jes
HLT_AntiKt10LCTopoTrimmedPtFrac4SmallR20Jets_jesAux.
HLT_AntiKt10LCTopoTrimmedPtFrac4SmallR20Jets_jesAuxDyn.AlgorithmType
HLT_AntiKt10LCTopoTrimmedPtFrac4SmallR20Jets_jesAuxDyn.DetectorEta
HLT_AntiKt10LCTopoTrimmedPtFrac4SmallR20Jets_jesAuxDyn.DetectorPhi
HLT_AntiKt10LCTopoTrimmedPtFrac4SmallR20Jets_jesAuxDyn.InputType
HLT_AntiKt10LCTopoTrimmedPtFrac4SmallR20Jets_jesAuxDyn.JetConstitScaleMomentum_eta
HLT_AntiKt10LCTopoTrimmedPtFrac4SmallR20Jets_jesAuxDyn.JetConstitScaleMomentum_m
HLT_AntiKt10LCTopoTrimmedPtFrac4SmallR20Jets_jesAuxDyn.JetConstitScaleMomentum_phi
HLT_AntiKt10LCTopoTrimmedPtFrac4SmallR20Jets_jesAuxDyn.JetConstitScaleMomentum_pt
HLT_AntiKt10LCTopoTrimmedPtFrac4SmallR20Jets_jesAuxDyn.JetEtaJESScaleMomentum_eta
HLT_AntiKt10LCTopoTrimmedPtFrac4SmallR20Jets_jesAuxDyn.JetEtaJESScaleMomentum_m
HLT_AntiKt10LCTopoTrimmedPtFrac4SmallR20Jets_jesAuxDyn.JetEtaJESScaleMomentum_phi
HLT_AntiKt10LCTopoTrimmedPtFrac4SmallR20Jets_jesAuxDyn.JetEtaJESScaleMomentum_pt
HLT_AntiKt10LCTopoTrimmedPtFrac4SmallR20Jets_jesAuxDyn.SizeParameter
HLT_AntiKt10LCTopoTrimmedPtFrac4SmallR20Jets_nojcalib
HLT_AntiKt10LCTopoTrimmedPtFrac4SmallR20Jets_nojcalibAux.
HLT_AntiKt10LCTopoTrimmedPtFrac4SmallR20Jets_nojcalibAuxDyn.AlgorithmType
HLT_AntiKt10LCTopoTrimmedPtFrac4SmallR20Jets_nojcalibAuxDyn.InputType
HLT_AntiKt10LCTopoTrimmedPtFrac4SmallR20Jets_nojcalibAuxDyn.JetConstitScaleMomentum_eta
HLT_AntiKt10LCTopoTrimmedPtFrac4SmallR20Jets_nojcalibAuxDyn.JetConstitScaleMomentum_m
HLT_AntiKt10LCTopoTrimmedPtFrac4SmallR20Jets_nojcalibAuxDyn.JetConstitScaleMomentum_phi
HLT_AntiKt10LCTopoTrimmedPtFrac4SmallR20Jets_nojcalibAuxDyn.JetConstitScaleMomentum_pt
HLT_AntiKt10LCTopoTrimmedPtFrac4SmallR20Jets_nojcalibAuxDyn.SizeParameter
HLT_AntiKt4EMPFlowCSSKJets_nojcalib_ftf
HLT_AntiKt4EMPFlowCSSKJets_nojcalib_ftfAux.
HLT_AntiKt4EMPFlowCSSKJets_nojcalib_ftfAuxDyn.ActiveArea
HLT_AntiKt4EMPFlowCSSKJets_nojcalib_ftfAuxDyn.ActiveArea4vec_eta
HLT_AntiKt4EMPFlowCSSKJets_nojcalib_ftfAuxDyn.ActiveArea4vec_m
HLT_AntiKt4EMPFlowCSSKJets_nojcalib_ftfAuxDyn.ActiveArea4vec_phi
HLT_AntiKt4EMPFlowCSSKJets_nojcalib_ftfAuxDyn.ActiveArea4vec_pt
HLT_AntiKt4EMPFlowCSSKJets_nojcalib_ftfAuxDyn.AlgorithmType
HLT_AntiKt4EMPFlowCSSKJets_nojcalib_ftfAuxDyn.DetectorEta
HLT_AntiKt4EMPFlowCSSKJets_nojcalib_ftfAuxDyn.DetectorPhi
HLT_AntiKt4EMPFlowCSSKJets_nojcalib_ftfAuxDyn.EMFrac
HLT_AntiKt4EMPFlowCSSKJets_nojcalib_ftfAuxDyn.EnergyPerSampling
HLT_AntiKt4EMPFlowCSSKJets_nojcalib_ftfAuxDyn.HECFrac
HLT_AntiKt4EMPFlowCSSKJets_nojcalib_ftfAuxDyn.InputType
HLT_AntiKt4EMPFlowCSSKJets_nojcalib_ftfAuxDyn.JVFCorr
HLT_AntiKt4EMPFlowCSSKJets_nojcalib_ftfAuxDyn.JetConstitScaleMomentum_eta
HLT_AntiKt4EMPFlowCSSKJets_nojcalib_ftfAuxDyn.JetConstitScaleMomentum_m
HLT_AntiKt4EMPFlowCSSKJets_nojcalib_ftfAuxDyn.JetConstitScaleMomentum_phi
HLT_AntiKt4EMPFlowCSSKJets_nojcalib_ftfAuxDyn.JetConstitScaleMomentum_pt
HLT_AntiKt4EMPFlowCSSKJets_nojcalib_ftfAuxDyn.Jvt
HLT_AntiKt4EMPFlowCSSKJets_nojcalib_ftfAuxDyn.JvtRpt
HLT_AntiKt4EMPFlowCSSKJets_nojcalib_ftfAuxDyn.NumTrkPt1000
HLT_AntiKt4EMPFlowCSSKJets_nojcalib_ftfAuxDyn.NumTrkPt500
HLT_AntiKt4EMPFlowCSSKJets_nojcalib_ftfAuxDyn.SizeParameter
HLT_AntiKt4EMPFlowCSSKJets_nojcalib_ftfAuxDyn.SumPtChargedPFOPt500
HLT_AntiKt4EMPFlowCSSKJets_nojcalib_ftfAuxDyn.SumPtTrkPt1000
HLT_AntiKt4EMPFlowCSSKJets_nojcalib_ftfAuxDyn.SumPtTrkPt500
HLT_AntiKt4EMPFlowCSSKJets_nojcalib_ftfAuxDyn.TrackWidthPt1000
HLT_AntiKt4EMPFlowJets_nojcalib_ftf
HLT_AntiKt4EMPFlowJets_nojcalib_ftfAux.
HLT_AntiKt4EMPFlowJets_nojcalib_ftfAuxDyn.ActiveArea
HLT_AntiKt4EMPFlowJets_nojcalib_ftfAuxDyn.ActiveArea4vec_eta
HLT_AntiKt4EMPFlowJets_nojcalib_ftfAuxDyn.ActiveArea4vec_m
HLT_AntiKt4EMPFlowJets_nojcalib_ftfAuxDyn.ActiveArea4vec_phi
HLT_AntiKt4EMPFlowJets_nojcalib_ftfAuxDyn.ActiveArea4vec_pt
HLT_AntiKt4EMPFlowJets_nojcalib_ftfAuxDyn.AlgorithmType
HLT_AntiKt4EMPFlowJets_nojcalib_ftfAuxDyn.DetectorEta
HLT_AntiKt4EMPFlowJets_nojcalib_ftfAuxDyn.DetectorPhi
HLT_AntiKt4EMPFlowJets_nojcalib_ftfAuxDyn.EMFrac
HLT_AntiKt4EMPFlowJets_nojcalib_ftfAuxDyn.EnergyPerSampling
HLT_AntiKt4EMPFlowJets_nojcalib_ftfAuxDyn.HECFrac
HLT_AntiKt4EMPFlowJets_nojcalib_ftfAuxDyn.InputType
HLT_AntiKt4EMPFlowJets_nojcalib_ftfAuxDyn.JVFCorr
HLT_AntiKt4EMPFlowJets_nojcalib_ftfAuxDyn.JetConstitScaleMomentum_eta
HLT_AntiKt4EMPFlowJets_nojcalib_ftfAuxDyn.JetConstitScaleMomentum_m
HLT_AntiKt4EMPFlowJets_nojcalib_ftfAuxDyn.JetConstitScaleMomentum_phi
HLT_AntiKt4EMPFlowJets_nojcalib_ftfAuxDyn.JetConstitScaleMomentum_pt
HLT_AntiKt4EMPFlowJets_nojcalib_ftfAuxDyn.Jvt
HLT_AntiKt4EMPFlowJets_nojcalib_ftfAuxDyn.JvtRpt
HLT_AntiKt4EMPFlowJets_nojcalib_ftfAuxDyn.NumTrkPt1000
HLT_AntiKt4EMPFlowJets_nojcalib_ftfAuxDyn.NumTrkPt500
HLT_AntiKt4EMPFlowJets_nojcalib_ftfAuxDyn.SizeParameter
HLT_AntiKt4EMPFlowJets_nojcalib_ftfAuxDyn.SumPtChargedPFOPt500
HLT_AntiKt4EMPFlowJets_nojcalib_ftfAuxDyn.SumPtTrkPt1000
HLT_AntiKt4EMPFlowJets_nojcalib_ftfAuxDyn.SumPtTrkPt500
HLT_AntiKt4EMPFlowJets_nojcalib_ftfAuxDyn.TrackWidthPt1000
HLT_AntiKt4EMPFlowJets_subjesIS_ftf
HLT_AntiKt4EMPFlowJets_subjesIS_ftfAux.
HLT_AntiKt4EMPFlowJets_subjesgscIS_ftf
HLT_AntiKt4EMPFlowJets_subjesgscIS_ftfAux.
HLT_AntiKt4EMPFlowJets_subjesgscIS_ftfAuxDyn.JetEtaJESScaleMomentum_eta
HLT_AntiKt4EMPFlowJets_subjesgscIS_ftfAuxDyn.JetEtaJESScaleMomentum_m
HLT_AntiKt4EMPFlowJets_subjesgscIS_ftfAuxDyn.JetEtaJESScaleMomentum_phi
HLT_AntiKt4EMPFlowJets_subjesgscIS_ftfAuxDyn.JetEtaJESScaleMomentum_pt
HLT_AntiKt4EMPFlowJets_subjesgscIS_ftfAuxDyn.JetGSCScaleMomentum_eta
HLT_AntiKt4EMPFlowJets_subjesgscIS_ftfAuxDyn.JetGSCScaleMomentum_m
HLT_AntiKt4EMPFlowJets_subjesgscIS_ftfAuxDyn.JetGSCScaleMomentum_phi
HLT_AntiKt4EMPFlowJets_subjesgscIS_ftfAuxDyn.JetGSCScaleMomentum_pt
HLT_AntiKt4EMPFlowJets_subjesgscIS_ftfAuxDyn.JetPileupScaleMomentum_eta
HLT_AntiKt4EMPFlowJets_subjesgscIS_ftfAuxDyn.JetPileupScaleMomentum_m
HLT_AntiKt4EMPFlowJets_subjesgscIS_ftfAuxDyn.JetPileupScaleMomentum_phi
HLT_AntiKt4EMPFlowJets_subjesgscIS_ftfAuxDyn.JetPileupScaleMomentum_pt
HLT_AntiKt4EMPFlowJets_subjesgscIS_ftfAuxDyn.Jvt
HLT_AntiKt4EMPFlowJets_subjesgscIS_ftfAuxDyn.JvtRpt
HLT_AntiKt4EMPFlowJets_subjesgscIS_ftfAuxDyn.eta
HLT_AntiKt4EMPFlowJets_subjesgscIS_ftfAuxDyn.m
HLT_AntiKt4EMPFlowJets_subjesgscIS_ftfAuxDyn.phi
HLT_AntiKt4EMPFlowJets_subjesgscIS_ftfAuxDyn.pt
HLT_AntiKt4EMPFlowJets_subjesgsc_ftf
HLT_AntiKt4EMPFlowJets_subjesgsc_ftfAux.
HLT_AntiKt4EMPFlowJets_subjesgsc_ftfAuxDyn.JetEtaJESScaleMomentum_eta
HLT_AntiKt4EMPFlowJets_subjesgsc_ftfAuxDyn.JetEtaJESScaleMomentum_m
HLT_AntiKt4EMPFlowJets_subjesgsc_ftfAuxDyn.JetEtaJESScaleMomentum_phi
HLT_AntiKt4EMPFlowJets_subjesgsc_ftfAuxDyn.JetEtaJESScaleMomentum_pt
HLT_AntiKt4EMPFlowJets_subjesgsc_ftfAuxDyn.JetGSCScaleMomentum_eta
HLT_AntiKt4EMPFlowJets_subjesgsc_ftfAuxDyn.JetGSCScaleMomentum_m
HLT_AntiKt4EMPFlowJets_subjesgsc_ftfAuxDyn.JetGSCScaleMomentum_phi
HLT_AntiKt4EMPFlowJets_subjesgsc_ftfAuxDyn.JetGSCScaleMomentum_pt
HLT_AntiKt4EMPFlowJets_subjesgsc_ftfAuxDyn.JetPileupScaleMomentum_eta
HLT_AntiKt4EMPFlowJets_subjesgsc_ftfAuxDyn.JetPileupScaleMomentum_m
HLT_AntiKt4EMPFlowJets_subjesgsc_ftfAuxDyn.JetPileupScaleMomentum_phi
HLT_AntiKt4EMPFlowJets_subjesgsc_ftfAuxDyn.JetPileupScaleMomentum_pt
HLT_AntiKt4EMPFlowJets_subjesgsc_ftfAuxDyn.Jvt
HLT_AntiKt4EMPFlowJets_subjesgsc_ftfAuxDyn.JvtRpt
HLT_AntiKt4EMPFlowJets_subjesgsc_ftfAuxDyn.eta
HLT_AntiKt4EMPFlowJets_subjesgsc_ftfAuxDyn.m
HLT_AntiKt4EMPFlowJets_subjesgsc_ftfAuxDyn.phi
HLT_AntiKt4EMPFlowJets_subjesgsc_ftfAuxDyn.pt
HLT_AntiKt4EMPFlowJets_subresjesgscIS_ftf
HLT_AntiKt4EMPFlowJets_subresjesgscIS_ftfAux.
HLT_AntiKt4EMPFlowJets_subresjesgscIS_ftfAuxDyn.JetEtaJESScaleMomentum_eta
HLT_AntiKt4EMPFlowJets_subresjesgscIS_ftfAuxDyn.JetEtaJESScaleMomentum_m
HLT_AntiKt4EMPFlowJets_subresjesgscIS_ftfAuxDyn.JetEtaJESScaleMomentum_phi
HLT_AntiKt4EMPFlowJets_subresjesgscIS_ftfAuxDyn.JetEtaJESScaleMomentum_pt
HLT_AntiKt4EMPFlowJets_subresjesgscIS_ftfAuxDyn.JetGSCScaleMomentum_eta
HLT_AntiKt4EMPFlowJets_subresjesgscIS_ftfAuxDyn.JetGSCScaleMomentum_m
HLT_AntiKt4EMPFlowJets_subresjesgscIS_ftfAuxDyn.JetGSCScaleMomentum_phi
HLT_AntiKt4EMPFlowJets_subresjesgscIS_ftfAuxDyn.JetGSCScaleMomentum_pt
HLT_AntiKt4EMPFlowJets_subresjesgscIS_ftfAuxDyn.JetPileupScaleMomentum_eta
HLT_AntiKt4EMPFlowJets_subresjesgscIS_ftfAuxDyn.JetPileupScaleMomentum_m
HLT_AntiKt4EMPFlowJets_subresjesgscIS_ftfAuxDyn.JetPileupScaleMomentum_phi
HLT_AntiKt4EMPFlowJets_subresjesgscIS_ftfAuxDyn.JetPileupScaleMomentum_pt
HLT_AntiKt4EMPFlowJets_subresjesgscIS_ftfAuxDyn.Jvt
HLT_AntiKt4EMPFlowJets_subresjesgscIS_ftfAuxDyn.JvtRpt
HLT_AntiKt4EMPFlowJets_subresjesgscIS_ftfAuxDyn.eta
HLT_AntiKt4EMPFlowJets_subresjesgscIS_ftfAuxDyn.m
HLT_AntiKt4EMPFlowJets_subresjesgscIS_ftfAuxDyn.phi
HLT_AntiKt4EMPFlowJets_subresjesgscIS_ftfAuxDyn.pt
HLT_AntiKt4EMPFlowJets_subresjesgsc_ftf
HLT_AntiKt4EMPFlowJets_subresjesgsc_ftfAux.
HLT_AntiKt4EMPFlowJets_subresjesgsc_ftfAuxDyn.JetEtaJESScaleMomentum_eta
HLT_AntiKt4EMPFlowJets_subresjesgsc_ftfAuxDyn.JetEtaJESScaleMomentum_m
HLT_AntiKt4EMPFlowJets_subresjesgsc_ftfAuxDyn.JetEtaJESScaleMomentum_phi
HLT_AntiKt4EMPFlowJets_subresjesgsc_ftfAuxDyn.JetEtaJESScaleMomentum_pt
HLT_AntiKt4EMPFlowJets_subresjesgsc_ftfAuxDyn.JetGSCScaleMomentum_eta
HLT_AntiKt4EMPFlowJets_subresjesgsc_ftfAuxDyn.JetGSCScaleMomentum_m
HLT_AntiKt4EMPFlowJets_subresjesgsc_ftfAuxDyn.JetGSCScaleMomentum_phi
HLT_AntiKt4EMPFlowJets_subresjesgsc_ftfAuxDyn.JetGSCScaleMomentum_pt
HLT_AntiKt4EMPFlowJets_subresjesgsc_ftfAuxDyn.JetPileupScaleMomentum_eta
HLT_AntiKt4EMPFlowJets_subresjesgsc_ftfAuxDyn.JetPileupScaleMomentum_m
HLT_AntiKt4EMPFlowJets_subresjesgsc_ftfAuxDyn.JetPileupScaleMomentum_phi
HLT_AntiKt4EMPFlowJets_subresjesgsc_ftfAuxDyn.JetPileupScaleMomentum_pt
HLT_AntiKt4EMPFlowJets_subresjesgsc_ftfAuxDyn.Jvt
HLT_AntiKt4EMPFlowJets_subresjesgsc_ftfAuxDyn.JvtRpt
HLT_AntiKt4EMPFlowJets_subresjesgsc_ftfAuxDyn.eta
HLT_AntiKt4EMPFlowJets_subresjesgsc_ftfAuxDyn.m
HLT_AntiKt4EMPFlowJets_subresjesgsc_ftfAuxDyn.phi
HLT_AntiKt4EMPFlowJets_subresjesgsc_ftfAuxDyn.pt
HLT_AntiKt4EMTopoCSSKJets_nojcalib
HLT_AntiKt4EMTopoCSSKJets_nojcalibAux.
HLT_AntiKt4EMTopoCSSKJets_nojcalibAuxDyn.ActiveArea
HLT_AntiKt4EMTopoCSSKJets_nojcalibAuxDyn.ActiveArea4vec_eta
HLT_AntiKt4EMTopoCSSKJets_nojcalibAuxDyn.ActiveArea4vec_m
HLT_AntiKt4EMTopoCSSKJets_nojcalibAuxDyn.ActiveArea4vec_phi
HLT_AntiKt4EMTopoCSSKJets_nojcalibAuxDyn.ActiveArea4vec_pt
HLT_AntiKt4EMTopoCSSKJets_nojcalibAuxDyn.AlgorithmType
HLT_AntiKt4EMTopoCSSKJets_nojcalibAuxDyn.DetectorEta
HLT_AntiKt4EMTopoCSSKJets_nojcalibAuxDyn.DetectorPhi
HLT_AntiKt4EMTopoCSSKJets_nojcalibAuxDyn.EMFrac
HLT_AntiKt4EMTopoCSSKJets_nojcalibAuxDyn.EnergyPerSampling
HLT_AntiKt4EMTopoCSSKJets_nojcalibAuxDyn.HECFrac
HLT_AntiKt4EMTopoCSSKJets_nojcalibAuxDyn.InputType
HLT_AntiKt4EMTopoCSSKJets_nojcalibAuxDyn.JetConstitScaleMomentum_eta
HLT_AntiKt4EMTopoCSSKJets_nojcalibAuxDyn.JetConstitScaleMomentum_m
HLT_AntiKt4EMTopoCSSKJets_nojcalibAuxDyn.JetConstitScaleMomentum_phi
HLT_AntiKt4EMTopoCSSKJets_nojcalibAuxDyn.JetConstitScaleMomentum_pt
HLT_AntiKt4EMTopoCSSKJets_nojcalibAuxDyn.SizeParameter
HLT_AntiKt4EMTopoJets_nojcalib
HLT_AntiKt4EMTopoJets_nojcalibAux.
HLT_AntiKt4EMTopoJets_nojcalibAuxDyn.ActiveArea
HLT_AntiKt4EMTopoJets_nojcalibAuxDyn.ActiveArea4vec_eta
HLT_AntiKt4EMTopoJets_nojcalibAuxDyn.ActiveArea4vec_m
HLT_AntiKt4EMTopoJets_nojcalibAuxDyn.ActiveArea4vec_phi
HLT_AntiKt4EMTopoJets_nojcalibAuxDyn.ActiveArea4vec_pt
HLT_AntiKt4EMTopoJets_nojcalibAuxDyn.AlgorithmType
HLT_AntiKt4EMTopoJets_nojcalibAuxDyn.DetectorEta
HLT_AntiKt4EMTopoJets_nojcalibAuxDyn.DetectorPhi
HLT_AntiKt4EMTopoJets_nojcalibAuxDyn.EMFrac
HLT_AntiKt4EMTopoJets_nojcalibAuxDyn.EnergyPerSampling
HLT_AntiKt4EMTopoJets_nojcalibAuxDyn.HECFrac
HLT_AntiKt4EMTopoJets_nojcalibAuxDyn.InputType
HLT_AntiKt4EMTopoJets_nojcalibAuxDyn.JetConstitScaleMomentum_eta
HLT_AntiKt4EMTopoJets_nojcalibAuxDyn.JetConstitScaleMomentum_m
HLT_AntiKt4EMTopoJets_nojcalibAuxDyn.JetConstitScaleMomentum_phi
HLT_AntiKt4EMTopoJets_nojcalibAuxDyn.JetConstitScaleMomentum_pt
HLT_AntiKt4EMTopoJets_nojcalibAuxDyn.SizeParameter
HLT_AntiKt4EMTopoJets_nojcalib_ftf
HLT_AntiKt4EMTopoJets_nojcalib_ftfAux.
HLT_AntiKt4EMTopoJets_nojcalib_ftfAuxDyn.ActiveArea
HLT_AntiKt4EMTopoJets_nojcalib_ftfAuxDyn.ActiveArea4vec_eta
HLT_AntiKt4EMTopoJets_nojcalib_ftfAuxDyn.ActiveArea4vec_m
HLT_AntiKt4EMTopoJets_nojcalib_ftfAuxDyn.ActiveArea4vec_phi
HLT_AntiKt4EMTopoJets_nojcalib_ftfAuxDyn.ActiveArea4vec_pt
HLT_AntiKt4EMTopoJets_nojcalib_ftfAuxDyn.AlgorithmType
HLT_AntiKt4EMTopoJets_nojcalib_ftfAuxDyn.DetectorEta
HLT_AntiKt4EMTopoJets_nojcalib_ftfAuxDyn.DetectorPhi
HLT_AntiKt4EMTopoJets_nojcalib_ftfAuxDyn.EMFrac
HLT_AntiKt4EMTopoJets_nojcalib_ftfAuxDyn.EnergyPerSampling
HLT_AntiKt4EMTopoJets_nojcalib_ftfAuxDyn.HECFrac
HLT_AntiKt4EMTopoJets_nojcalib_ftfAuxDyn.InputType
HLT_AntiKt4EMTopoJets_nojcalib_ftfAuxDyn.JVFCorr
HLT_AntiKt4EMTopoJets_nojcalib_ftfAuxDyn.JetConstitScaleMomentum_eta
HLT_AntiKt4EMTopoJets_nojcalib_ftfAuxDyn.JetConstitScaleMomentum_m
HLT_AntiKt4EMTopoJets_nojcalib_ftfAuxDyn.JetConstitScaleMomentum_phi
HLT_AntiKt4EMTopoJets_nojcalib_ftfAuxDyn.JetConstitScaleMomentum_pt
HLT_AntiKt4EMTopoJets_nojcalib_ftfAuxDyn.Jvt
HLT_AntiKt4EMTopoJets_nojcalib_ftfAuxDyn.JvtRpt
HLT_AntiKt4EMTopoJets_nojcalib_ftfAuxDyn.NumTrkPt1000
HLT_AntiKt4EMTopoJets_nojcalib_ftfAuxDyn.NumTrkPt500
HLT_AntiKt4EMTopoJets_nojcalib_ftfAuxDyn.SizeParameter
HLT_AntiKt4EMTopoJets_nojcalib_ftfAuxDyn.SumPtTrkPt1000
HLT_AntiKt4EMTopoJets_nojcalib_ftfAuxDyn.SumPtTrkPt500
HLT_AntiKt4EMTopoJets_nojcalib_ftfAuxDyn.TrackWidthPt1000
HLT_AntiKt4EMTopoJets_subjes
HLT_AntiKt4EMTopoJets_subjesAux.
HLT_AntiKt4EMTopoJets_subjesIS
HLT_AntiKt4EMTopoJets_subjesISAux.
HLT_AntiKt4EMTopoJets_subjesISAuxDyn.JetEtaJESScaleMomentum_eta
HLT_AntiKt4EMTopoJets_subjesISAuxDyn.JetEtaJESScaleMomentum_m
HLT_AntiKt4EMTopoJets_subjesISAuxDyn.JetEtaJESScaleMomentum_phi
HLT_AntiKt4EMTopoJets_subjesISAuxDyn.JetEtaJESScaleMomentum_pt
HLT_AntiKt4EMTopoJets_subjesISAuxDyn.JetGSCScaleMomentum_eta
HLT_AntiKt4EMTopoJets_subjesISAuxDyn.JetGSCScaleMomentum_m
HLT_AntiKt4EMTopoJets_subjesISAuxDyn.JetGSCScaleMomentum_phi
HLT_AntiKt4EMTopoJets_subjesISAuxDyn.JetGSCScaleMomentum_pt
HLT_AntiKt4EMTopoJets_subjesISAuxDyn.JetPileupScaleMomentum_eta
HLT_AntiKt4EMTopoJets_subjesISAuxDyn.JetPileupScaleMomentum_m
HLT_AntiKt4EMTopoJets_subjesISAuxDyn.JetPileupScaleMomentum_phi
HLT_AntiKt4EMTopoJets_subjesISAuxDyn.JetPileupScaleMomentum_pt
HLT_AntiKt4EMTopoJets_subjesISAuxDyn.eta
HLT_AntiKt4EMTopoJets_subjesISAuxDyn.m
HLT_AntiKt4EMTopoJets_subjesISAuxDyn.phi
HLT_AntiKt4EMTopoJets_subjesISAuxDyn.pt
HLT_AntiKt4EMTopoJets_subjesIS_ftf
HLT_AntiKt4EMTopoJets_subjesIS_ftfAux.
HLT_AntiKt4EMTopoJets_subjesIS_ftfAuxDyn.JetEtaJESScaleMomentum_eta
HLT_AntiKt4EMTopoJets_subjesIS_ftfAuxDyn.JetEtaJESScaleMomentum_m
HLT_AntiKt4EMTopoJets_subjesIS_ftfAuxDyn.JetEtaJESScaleMomentum_phi
HLT_AntiKt4EMTopoJets_subjesIS_ftfAuxDyn.JetEtaJESScaleMomentum_pt
HLT_AntiKt4EMTopoJets_subjesIS_ftfAuxDyn.JetGSCScaleMomentum_eta
HLT_AntiKt4EMTopoJets_subjesIS_ftfAuxDyn.JetGSCScaleMomentum_m
HLT_AntiKt4EMTopoJets_subjesIS_ftfAuxDyn.JetGSCScaleMomentum_phi
HLT_AntiKt4EMTopoJets_subjesIS_ftfAuxDyn.JetGSCScaleMomentum_pt
HLT_AntiKt4EMTopoJets_subjesIS_ftfAuxDyn.JetPileupScaleMomentum_eta
HLT_AntiKt4EMTopoJets_subjesIS_ftfAuxDyn.JetPileupScaleMomentum_m
HLT_AntiKt4EMTopoJets_subjesIS_ftfAuxDyn.JetPileupScaleMomentum_phi
HLT_AntiKt4EMTopoJets_subjesIS_ftfAuxDyn.JetPileupScaleMomentum_pt
HLT_AntiKt4EMTopoJets_subjesIS_ftfAuxDyn.Jvt
HLT_AntiKt4EMTopoJets_subjesIS_ftfAuxDyn.JvtRpt
HLT_AntiKt4EMTopoJets_subjesIS_ftfAuxDyn.eta
HLT_AntiKt4EMTopoJets_subjesIS_ftfAuxDyn.m
HLT_AntiKt4EMTopoJets_subjesIS_ftfAuxDyn.phi
HLT_AntiKt4EMTopoJets_subjesIS_ftfAuxDyn.pt
HLT_AntiKt4EMTopoJets_subjesgscIS_ftf
HLT_AntiKt4EMTopoJets_subjesgscIS_ftfAux.
HLT_AntiKt4EMTopoJets_subjesgscIS_ftfAuxDyn.JetEtaJESScaleMomentum_eta
HLT_AntiKt4EMTopoJets_subjesgscIS_ftfAuxDyn.JetEtaJESScaleMomentum_m
HLT_AntiKt4EMTopoJets_subjesgscIS_ftfAuxDyn.JetEtaJESScaleMomentum_phi
HLT_AntiKt4EMTopoJets_subjesgscIS_ftfAuxDyn.JetEtaJESScaleMomentum_pt
HLT_AntiKt4EMTopoJets_subjesgscIS_ftfAuxDyn.JetGSCScaleMomentum_eta
HLT_AntiKt4EMTopoJets_subjesgscIS_ftfAuxDyn.JetGSCScaleMomentum_m
HLT_AntiKt4EMTopoJets_subjesgscIS_ftfAuxDyn.JetGSCScaleMomentum_phi
HLT_AntiKt4EMTopoJets_subjesgscIS_ftfAuxDyn.JetGSCScaleMomentum_pt
HLT_AntiKt4EMTopoJets_subjesgscIS_ftfAuxDyn.JetPileupScaleMomentum_eta
HLT_AntiKt4EMTopoJets_subjesgscIS_ftfAuxDyn.JetPileupScaleMomentum_m
HLT_AntiKt4EMTopoJets_subjesgscIS_ftfAuxDyn.JetPileupScaleMomentum_phi
HLT_AntiKt4EMTopoJets_subjesgscIS_ftfAuxDyn.JetPileupScaleMomentum_pt
HLT_AntiKt4EMTopoJets_subjesgscIS_ftfAuxDyn.Jvt
HLT_AntiKt4EMTopoJets_subjesgscIS_ftfAuxDyn.JvtRpt
HLT_AntiKt4EMTopoJets_subjesgscIS_ftfAuxDyn.eta
HLT_AntiKt4EMTopoJets_subjesgscIS_ftfAuxDyn.m
HLT_AntiKt4EMTopoJets_subjesgscIS_ftfAuxDyn.phi
HLT_AntiKt4EMTopoJets_subjesgscIS_ftfAuxDyn.pt
HLT_AntiKt4EMTopoJets_subjesgsc_ftf
HLT_AntiKt4EMTopoJets_subjesgsc_ftfAux.
HLT_AntiKt4EMTopoJets_subjesgsc_ftfAuxDyn.JetEtaJESScaleMomentum_eta
HLT_AntiKt4EMTopoJets_subjesgsc_ftfAuxDyn.JetEtaJESScaleMomentum_m
HLT_AntiKt4EMTopoJets_subjesgsc_ftfAuxDyn.JetEtaJESScaleMomentum_phi
HLT_AntiKt4EMTopoJets_subjesgsc_ftfAuxDyn.JetEtaJESScaleMomentum_pt
HLT_AntiKt4EMTopoJets_subjesgsc_ftfAuxDyn.JetGSCScaleMomentum_eta
HLT_AntiKt4EMTopoJets_subjesgsc_ftfAuxDyn.JetGSCScaleMomentum_m
HLT_AntiKt4EMTopoJets_subjesgsc_ftfAuxDyn.JetGSCScaleMomentum_phi
HLT_AntiKt4EMTopoJets_subjesgsc_ftfAuxDyn.JetGSCScaleMomentum_pt
HLT_AntiKt4EMTopoJets_subjesgsc_ftfAuxDyn.JetPileupScaleMomentum_eta
HLT_AntiKt4EMTopoJets_subjesgsc_ftfAuxDyn.JetPileupScaleMomentum_m
HLT_AntiKt4EMTopoJets_subjesgsc_ftfAuxDyn.JetPileupScaleMomentum_phi
HLT_AntiKt4EMTopoJets_subjesgsc_ftfAuxDyn.JetPileupScaleMomentum_pt
HLT_AntiKt4EMTopoJets_subjesgsc_ftfAuxDyn.Jvt
HLT_AntiKt4EMTopoJets_subjesgsc_ftfAuxDyn.JvtRpt
HLT_AntiKt4EMTopoJets_subjesgsc_ftfAuxDyn.eta
HLT_AntiKt4EMTopoJets_subjesgsc_ftfAuxDyn.m
HLT_AntiKt4EMTopoJets_subjesgsc_ftfAuxDyn.phi
HLT_AntiKt4EMTopoJets_subjesgsc_ftfAuxDyn.pt
HLT_AntiKt4EMTopoJets_subresjesgscIS_ftf
HLT_AntiKt4EMTopoJets_subresjesgscIS_ftfAux.
HLT_AntiKt4EMTopoJets_subresjesgscIS_ftfAuxDyn.JetEtaJESScaleMomentum_eta
HLT_AntiKt4EMTopoJets_subresjesgscIS_ftfAuxDyn.JetEtaJESScaleMomentum_m
HLT_AntiKt4EMTopoJets_subresjesgscIS_ftfAuxDyn.JetEtaJESScaleMomentum_phi
HLT_AntiKt4EMTopoJets_subresjesgscIS_ftfAuxDyn.JetEtaJESScaleMomentum_pt
HLT_AntiKt4EMTopoJets_subresjesgscIS_ftfAuxDyn.JetGSCScaleMomentum_eta
HLT_AntiKt4EMTopoJets_subresjesgscIS_ftfAuxDyn.JetGSCScaleMomentum_m
HLT_AntiKt4EMTopoJets_subresjesgscIS_ftfAuxDyn.JetGSCScaleMomentum_phi
HLT_AntiKt4EMTopoJets_subresjesgscIS_ftfAuxDyn.JetGSCScaleMomentum_pt
HLT_AntiKt4EMTopoJets_subresjesgscIS_ftfAuxDyn.JetPileupScaleMomentum_eta
HLT_AntiKt4EMTopoJets_subresjesgscIS_ftfAuxDyn.JetPileupScaleMomentum_m
HLT_AntiKt4EMTopoJets_subresjesgscIS_ftfAuxDyn.JetPileupScaleMomentum_phi
HLT_AntiKt4EMTopoJets_subresjesgscIS_ftfAuxDyn.JetPileupScaleMomentum_pt
HLT_AntiKt4EMTopoJets_subresjesgscIS_ftfAuxDyn.Jvt
HLT_AntiKt4EMTopoJets_subresjesgscIS_ftfAuxDyn.JvtRpt
HLT_AntiKt4EMTopoJets_subresjesgscIS_ftfAuxDyn.eta
HLT_AntiKt4EMTopoJets_subresjesgscIS_ftfAuxDyn.m
HLT_AntiKt4EMTopoJets_subresjesgscIS_ftfAuxDyn.phi
HLT_AntiKt4EMTopoJets_subresjesgscIS_ftfAuxDyn.pt
HLT_AntiKt4EMTopoJets_subresjesgsc_ftf
HLT_AntiKt4EMTopoJets_subresjesgsc_ftfAux.
HLT_AntiKt4EMTopoJets_subresjesgsc_ftfAuxDyn.JetEtaJESScaleMomentum_eta
HLT_AntiKt4EMTopoJets_subresjesgsc_ftfAuxDyn.JetEtaJESScaleMomentum_m
HLT_AntiKt4EMTopoJets_subresjesgsc_ftfAuxDyn.JetEtaJESScaleMomentum_phi
HLT_AntiKt4EMTopoJets_subresjesgsc_ftfAuxDyn.JetEtaJESScaleMomentum_pt
HLT_AntiKt4EMTopoJets_subresjesgsc_ftfAuxDyn.JetGSCScaleMomentum_eta
HLT_AntiKt4EMTopoJets_subresjesgsc_ftfAuxDyn.JetGSCScaleMomentum_m
HLT_AntiKt4EMTopoJets_subresjesgsc_ftfAuxDyn.JetGSCScaleMomentum_phi
HLT_AntiKt4EMTopoJets_subresjesgsc_ftfAuxDyn.JetGSCScaleMomentum_pt
HLT_AntiKt4EMTopoJets_subresjesgsc_ftfAuxDyn.JetPileupScaleMomentum_eta
HLT_AntiKt4EMTopoJets_subresjesgsc_ftfAuxDyn.JetPileupScaleMomentum_m
HLT_AntiKt4EMTopoJets_subresjesgsc_ftfAuxDyn.JetPileupScaleMomentum_phi
HLT_AntiKt4EMTopoJets_subresjesgsc_ftfAuxDyn.JetPileupScaleMomentum_pt
HLT_AntiKt4EMTopoJets_subresjesgsc_ftfAuxDyn.Jvt
HLT_AntiKt4EMTopoJets_subresjesgsc_ftfAuxDyn.JvtRpt
HLT_AntiKt4EMTopoJets_subresjesgsc_ftfAuxDyn.eta
HLT_AntiKt4EMTopoJets_subresjesgsc_ftfAuxDyn.m
HLT_AntiKt4EMTopoJets_subresjesgsc_ftfAuxDyn.phi
HLT_AntiKt4EMTopoJets_subresjesgsc_ftfAuxDyn.pt
HLT_AntiKt4EMTopoSKJets_nojcalib
HLT_AntiKt4EMTopoSKJets_nojcalibAux.
HLT_AntiKt4EMTopoSKJets_nojcalibAuxDyn.ActiveArea
HLT_AntiKt4EMTopoSKJets_nojcalibAuxDyn.ActiveArea4vec_eta
HLT_AntiKt4EMTopoSKJets_nojcalibAuxDyn.ActiveArea4vec_m
HLT_AntiKt4EMTopoSKJets_nojcalibAuxDyn.ActiveArea4vec_phi
HLT_AntiKt4EMTopoSKJets_nojcalibAuxDyn.ActiveArea4vec_pt
HLT_AntiKt4EMTopoSKJets_nojcalibAuxDyn.AlgorithmType
HLT_AntiKt4EMTopoSKJets_nojcalibAuxDyn.DetectorEta
HLT_AntiKt4EMTopoSKJets_nojcalibAuxDyn.DetectorPhi
HLT_AntiKt4EMTopoSKJets_nojcalibAuxDyn.EMFrac
HLT_AntiKt4EMTopoSKJets_nojcalibAuxDyn.EnergyPerSampling
HLT_AntiKt4EMTopoSKJets_nojcalibAuxDyn.HECFrac
HLT_AntiKt4EMTopoSKJets_nojcalibAuxDyn.InputType
HLT_AntiKt4EMTopoSKJets_nojcalibAuxDyn.JetConstitScaleMomentum_eta
HLT_AntiKt4EMTopoSKJets_nojcalibAuxDyn.JetConstitScaleMomentum_m
HLT_AntiKt4EMTopoSKJets_nojcalibAuxDyn.JetConstitScaleMomentum_phi
HLT_AntiKt4EMTopoSKJets_nojcalibAuxDyn.JetConstitScaleMomentum_pt
HLT_AntiKt4EMTopoSKJets_nojcalibAuxDyn.SizeParameter
HLT_BTagging
HLT_BTaggingAux.
HLT_BTaggingAuxDyn.BTagTrackToJetAssociator
HLT_BTaggingAuxDyn.DL1_pb
HLT_BTaggingAuxDyn.DL1_pc
HLT_BTaggingAuxDyn.DL1_pu
HLT_BTaggingAuxDyn.DL1d20210519r22_pb
HLT_BTaggingAuxDyn.DL1d20210519r22_pc
HLT_BTaggingAuxDyn.DL1d20210519r22_pu
HLT_BTaggingAuxDyn.DL1d20210528r22_pb
HLT_BTaggingAuxDyn.DL1d20210528r22_pc
HLT_BTaggingAuxDyn.DL1d20210528r22_pu
HLT_BTaggingAuxDyn.DL1r_pb
HLT_BTaggingAuxDyn.DL1r_pc
HLT_BTaggingAuxDyn.DL1r_pu
HLT_BTaggingAuxDyn.IP2D_TrackParticleLinks
HLT_BTaggingAuxDyn.IP2D_bc
HLT_BTaggingAuxDyn.IP2D_bu
HLT_BTaggingAuxDyn.IP2D_cu
HLT_BTaggingAuxDyn.IP2D_isDefaults
HLT_BTaggingAuxDyn.IP2D_nTrks
HLT_BTaggingAuxDyn.IP3D_TrackParticleLinks
HLT_BTaggingAuxDyn.IP3D_bc
HLT_BTaggingAuxDyn.IP3D_bu
HLT_BTaggingAuxDyn.IP3D_cu
HLT_BTaggingAuxDyn.IP3D_isDefaults
HLT_BTaggingAuxDyn.IP3D_nTrks
HLT_BTaggingAuxDyn.JetFitterSecondaryVertex_averageAllJetTrackRelativeEta
HLT_BTaggingAuxDyn.JetFitterSecondaryVertex_averageTrackRelativeEta
HLT_BTaggingAuxDyn.JetFitterSecondaryVertex_displacement2d
HLT_BTaggingAuxDyn.JetFitterSecondaryVertex_displacement3d
HLT_BTaggingAuxDyn.JetFitterSecondaryVertex_energy
HLT_BTaggingAuxDyn.JetFitterSecondaryVertex_energyFraction
HLT_BTaggingAuxDyn.JetFitterSecondaryVertex_isDefaults
HLT_BTaggingAuxDyn.JetFitterSecondaryVertex_mass
HLT_BTaggingAuxDyn.JetFitterSecondaryVertex_maximumAllJetTrackRelativeEta
HLT_BTaggingAuxDyn.JetFitterSecondaryVertex_maximumTrackRelativeEta
HLT_BTaggingAuxDyn.JetFitterSecondaryVertex_minimumAllJetTrackRelativeEta
HLT_BTaggingAuxDyn.JetFitterSecondaryVertex_minimumTrackRelativeEta
HLT_BTaggingAuxDyn.JetFitterSecondaryVertex_nTracks
HLT_BTaggingAuxDyn.JetFitter_JFvertices
HLT_BTaggingAuxDyn.JetFitter_N2Tpair
HLT_BTaggingAuxDyn.JetFitter_chi2
HLT_BTaggingAuxDyn.JetFitter_dRFlightDir
HLT_BTaggingAuxDyn.JetFitter_deltaR
HLT_BTaggingAuxDyn.JetFitter_deltaeta
HLT_BTaggingAuxDyn.JetFitter_deltaphi
HLT_BTaggingAuxDyn.JetFitter_energyFraction
HLT_BTaggingAuxDyn.JetFitter_fittedCov
HLT_BTaggingAuxDyn.JetFitter_fittedPosition
HLT_BTaggingAuxDyn.JetFitter_isDefaults
HLT_BTaggingAuxDyn.JetFitter_mass
HLT_BTaggingAuxDyn.JetFitter_massUncorr
HLT_BTaggingAuxDyn.JetFitter_nSingleTracks
HLT_BTaggingAuxDyn.JetFitter_nTracksAtVtx
HLT_BTaggingAuxDyn.JetFitter_nVTX
HLT_BTaggingAuxDyn.JetFitter_ndof
HLT_BTaggingAuxDyn.JetFitter_significance3d
HLT_BTaggingAuxDyn.JetFitter_tracksAtPVchi2
HLT_BTaggingAuxDyn.JetFitter_tracksAtPVlinks
HLT_BTaggingAuxDyn.JetFitter_tracksAtPVndf
HLT_BTaggingAuxDyn.MV2c10_discriminant
HLT_BTaggingAuxDyn.Muons
HLT_BTaggingAuxDyn.SV1_L3d
HLT_BTaggingAuxDyn.SV1_Lxy
HLT_BTaggingAuxDyn.SV1_N2Tpair
HLT_BTaggingAuxDyn.SV1_NGTinSvx
HLT_BTaggingAuxDyn.SV1_TrackParticleLinks
HLT_BTaggingAuxDyn.SV1_badTracksIP
HLT_BTaggingAuxDyn.SV1_deltaR
HLT_BTaggingAuxDyn.SV1_dstToMatLay
HLT_BTaggingAuxDyn.SV1_efracsvx
HLT_BTaggingAuxDyn.SV1_energyTrkInJet
HLT_BTaggingAuxDyn.SV1_isDefaults
HLT_BTaggingAuxDyn.SV1_masssvx
HLT_BTaggingAuxDyn.SV1_normdist
HLT_BTaggingAuxDyn.SV1_significance3d
HLT_BTaggingAuxDyn.SV1_vertices
HLT_BTaggingAuxDyn.dips20210517_pb
HLT_BTaggingAuxDyn.dips20210517_pc
HLT_BTaggingAuxDyn.dips20210517_pu
HLT_BTaggingAuxDyn.dipsLoose20210517_pb
HLT_BTaggingAuxDyn.dipsLoose20210517_pc
HLT_BTaggingAuxDyn.dipsLoose20210517_pu
HLT_BTaggingAuxDyn.jetLink
HLT_BTaggingAuxDyn.rnnip_isDefaults
HLT_BTaggingAuxDyn.rnnip_pb
HLT_BTaggingAuxDyn.rnnip_pc
HLT_BTaggingAuxDyn.rnnip_ptau
HLT_BTaggingAuxDyn.rnnip_pu
HLT_BTaggingAuxDyn.viewIndex
HLT_BTaggingJFVtx
HLT_BTaggingJFVtxAux.
HLT_BTaggingJFVtxAuxDyn.viewIndex
HLT_BTaggingSecVtx
HLT_BTaggingSecVtxAux.
HLT_BTaggingSecVtxAuxDyn.viewIndex
HLT_Bmumux
HLT_BmumuxAux.
HLT_Bmutrk
HLT_BmutrkAux.
HLT_CBCombinedMuon_FSTrackParticles
HLT_CBCombinedMuon_FSTrackParticlesAux.
HLT_CBCombinedMuon_FSTrackParticlesAuxDyn.viewIndex
HLT_CBCombinedMuon_RoITrackParticles
HLT_CBCombinedMuon_RoITrackParticlesAux.
HLT_CBCombinedMuon_RoITrackParticlesAuxDyn.viewIndex
HLT_CaloEMClusters
HLT_CaloEMClustersAux.
HLT_CaloEMClustersAuxDyn.viewIndex
HLT_CaloEMClusters_FWD
HLT_CaloEMClusters_FWDAux.
HLT_CaloEMClusters_LRT
HLT_CaloEMClusters_LRTAux.
HLT_CaloEMClusters_LRTAuxDyn.viewIndex
HLT_DiElecPrecision
HLT_DiElecPrecisionAux.
HLT_DimuEF
HLT_DimuEFAux.
HLT_DisTrkBDTSel
HLT_DisTrkBDTSelAux.
HLT_DisTrkBDTSelAuxDyn.disTrk_bdtscore
HLT_DisTrkBDTSelAuxDyn.disTrk_category
HLT_DisTrkBDTSelAuxDyn.disTrk_chi2
HLT_DisTrkBDTSelAuxDyn.disTrk_chi2ndof_pix
HLT_DisTrkBDTSelAuxDyn.disTrk_d0_wrtVtx
HLT_DisTrkBDTSelAuxDyn.disTrk_eta
HLT_DisTrkBDTSelAuxDyn.disTrk_is_fail
HLT_DisTrkBDTSelAuxDyn.disTrk_iso3_dr01
HLT_DisTrkBDTSelAuxDyn.disTrk_iso3_dr02
HLT_DisTrkBDTSelAuxDyn.disTrk_n_hits_innermost
HLT_DisTrkBDTSelAuxDyn.disTrk_n_hits_pix
HLT_DisTrkBDTSelAuxDyn.disTrk_n_hits_sct
HLT_DisTrkBDTSelAuxDyn.disTrk_ndof
HLT_DisTrkBDTSelAuxDyn.disTrk_phi
HLT_DisTrkBDTSelAuxDyn.disTrk_pt
HLT_DisTrkBDTSelAuxDyn.disTrk_refit_chi2
HLT_DisTrkBDTSelAuxDyn.disTrk_refit_d0_wrtVtx
HLT_DisTrkBDTSelAuxDyn.disTrk_refit_ndof
HLT_DisTrkBDTSelAuxDyn.disTrk_refit_pt
HLT_DisTrkBDTSelAuxDyn.disTrk_refit_z0_wrtVtx
HLT_DisTrkBDTSelAuxDyn.disTrk_z0_wrtVtx
HLT_DisTrkCand
HLT_DisTrkCandAux.
HLT_DisTrkCandAuxDyn.disTrkCand_category
HLT_DisTrkCandAuxDyn.disTrkCand_chi2
HLT_DisTrkCandAuxDyn.disTrkCand_chi2sum_br_ibl
HLT_DisTrkCandAuxDyn.disTrkCand_chi2sum_br_pix1
HLT_DisTrkCandAuxDyn.disTrkCand_chi2sum_br_pix2
HLT_DisTrkCandAuxDyn.disTrkCand_chi2sum_br_pix3
HLT_DisTrkCandAuxDyn.disTrkCand_chi2sum_br_sct1
HLT_DisTrkCandAuxDyn.disTrkCand_chi2sum_br_sct2
HLT_DisTrkCandAuxDyn.disTrkCand_chi2sum_br_sct3
HLT_DisTrkCandAuxDyn.disTrkCand_chi2sum_br_sct4
HLT_DisTrkCandAuxDyn.disTrkCand_d0
HLT_DisTrkCandAuxDyn.disTrkCand_d0_wrtVtx
HLT_DisTrkCandAuxDyn.disTrkCand_eta
HLT_DisTrkCandAuxDyn.disTrkCand_eta_wrtVtx
HLT_DisTrkCandAuxDyn.disTrkCand_is_fail
HLT_DisTrkCandAuxDyn.disTrkCand_iso1_dr01
HLT_DisTrkCandAuxDyn.disTrkCand_iso1_dr02
HLT_DisTrkCandAuxDyn.disTrkCand_iso1_dr04
HLT_DisTrkCandAuxDyn.disTrkCand_iso2_dr01
HLT_DisTrkCandAuxDyn.disTrkCand_iso2_dr02
HLT_DisTrkCandAuxDyn.disTrkCand_iso2_dr04
HLT_DisTrkCandAuxDyn.disTrkCand_iso3_dr01
HLT_DisTrkCandAuxDyn.disTrkCand_iso3_dr02
HLT_DisTrkCandAuxDyn.disTrkCand_iso3_dr04
HLT_DisTrkCandAuxDyn.disTrkCand_n_brhits_good_ibl
HLT_DisTrkCandAuxDyn.disTrkCand_n_brhits_good_pix1
HLT_DisTrkCandAuxDyn.disTrkCand_n_brhits_good_pix2
HLT_DisTrkCandAuxDyn.disTrkCand_n_brhits_good_pix3
HLT_DisTrkCandAuxDyn.disTrkCand_n_brhits_good_sct1
HLT_DisTrkCandAuxDyn.disTrkCand_n_brhits_good_sct2
HLT_DisTrkCandAuxDyn.disTrkCand_n_brhits_good_sct3
HLT_DisTrkCandAuxDyn.disTrkCand_n_brhits_good_sct4
HLT_DisTrkCandAuxDyn.disTrkCand_n_brhits_ibl
HLT_DisTrkCandAuxDyn.disTrkCand_n_brhits_pix1
HLT_DisTrkCandAuxDyn.disTrkCand_n_brhits_pix2
HLT_DisTrkCandAuxDyn.disTrkCand_n_brhits_pix3
HLT_DisTrkCandAuxDyn.disTrkCand_n_brhits_sct1
HLT_DisTrkCandAuxDyn.disTrkCand_n_brhits_sct2
HLT_DisTrkCandAuxDyn.disTrkCand_n_brhits_sct3
HLT_DisTrkCandAuxDyn.disTrkCand_n_brhits_sct4
HLT_DisTrkCandAuxDyn.disTrkCand_n_hits_inner
HLT_DisTrkCandAuxDyn.disTrkCand_n_hits_innermost
HLT_DisTrkCandAuxDyn.disTrkCand_n_hits_pix
HLT_DisTrkCandAuxDyn.disTrkCand_n_hits_sct
HLT_DisTrkCandAuxDyn.disTrkCand_ndof
HLT_DisTrkCandAuxDyn.disTrkCand_ndofsum_br_ibl
HLT_DisTrkCandAuxDyn.disTrkCand_ndofsum_br_pix1
HLT_DisTrkCandAuxDyn.disTrkCand_ndofsum_br_pix2
HLT_DisTrkCandAuxDyn.disTrkCand_ndofsum_br_pix3
HLT_DisTrkCandAuxDyn.disTrkCand_ndofsum_br_sct1
HLT_DisTrkCandAuxDyn.disTrkCand_ndofsum_br_sct2
HLT_DisTrkCandAuxDyn.disTrkCand_ndofsum_br_sct3
HLT_DisTrkCandAuxDyn.disTrkCand_ndofsum_br_sct4
HLT_DisTrkCandAuxDyn.disTrkCand_phi
HLT_DisTrkCandAuxDyn.disTrkCand_phi_wrtVtx
HLT_DisTrkCandAuxDyn.disTrkCand_pt
HLT_DisTrkCandAuxDyn.disTrkCand_pt_wrtVtx
HLT_DisTrkCandAuxDyn.disTrkCand_refit_chi2
HLT_DisTrkCandAuxDyn.disTrkCand_refit_chi2sum_br_ibl
HLT_DisTrkCandAuxDyn.disTrkCand_refit_chi2sum_br_pix1
HLT_DisTrkCandAuxDyn.disTrkCand_refit_chi2sum_br_pix2
HLT_DisTrkCandAuxDyn.disTrkCand_refit_chi2sum_br_pix3
HLT_DisTrkCandAuxDyn.disTrkCand_refit_chi2sum_br_sct1
HLT_DisTrkCandAuxDyn.disTrkCand_refit_chi2sum_br_sct2
HLT_DisTrkCandAuxDyn.disTrkCand_refit_chi2sum_br_sct3
HLT_DisTrkCandAuxDyn.disTrkCand_refit_chi2sum_br_sct4
HLT_DisTrkCandAuxDyn.disTrkCand_refit_d0
HLT_DisTrkCandAuxDyn.disTrkCand_refit_d0_wrtVtx
HLT_DisTrkCandAuxDyn.disTrkCand_refit_eta
HLT_DisTrkCandAuxDyn.disTrkCand_refit_eta_wrtVtx
HLT_DisTrkCandAuxDyn.disTrkCand_refit_n_brhits_good_ibl
HLT_DisTrkCandAuxDyn.disTrkCand_refit_n_brhits_good_pix1
HLT_DisTrkCandAuxDyn.disTrkCand_refit_n_brhits_good_pix2
HLT_DisTrkCandAuxDyn.disTrkCand_refit_n_brhits_good_pix3
HLT_DisTrkCandAuxDyn.disTrkCand_refit_n_brhits_good_sct1
HLT_DisTrkCandAuxDyn.disTrkCand_refit_n_brhits_good_sct2
HLT_DisTrkCandAuxDyn.disTrkCand_refit_n_brhits_good_sct3
HLT_DisTrkCandAuxDyn.disTrkCand_refit_n_brhits_good_sct4
HLT_DisTrkCandAuxDyn.disTrkCand_refit_n_brhits_ibl
HLT_DisTrkCandAuxDyn.disTrkCand_refit_n_brhits_pix1
HLT_DisTrkCandAuxDyn.disTrkCand_refit_n_brhits_pix2
HLT_DisTrkCandAuxDyn.disTrkCand_refit_n_brhits_pix3
HLT_DisTrkCandAuxDyn.disTrkCand_refit_n_brhits_sct1
HLT_DisTrkCandAuxDyn.disTrkCand_refit_n_brhits_sct2
HLT_DisTrkCandAuxDyn.disTrkCand_refit_n_brhits_sct3
HLT_DisTrkCandAuxDyn.disTrkCand_refit_n_brhits_sct4
HLT_DisTrkCandAuxDyn.disTrkCand_refit_n_hits_inner
HLT_DisTrkCandAuxDyn.disTrkCand_refit_n_hits_innermost
HLT_DisTrkCandAuxDyn.disTrkCand_refit_n_hits_pix
HLT_DisTrkCandAuxDyn.disTrkCand_refit_n_hits_sct
HLT_DisTrkCandAuxDyn.disTrkCand_refit_ndof
HLT_DisTrkCandAuxDyn.disTrkCand_refit_ndofsum_br_ibl
HLT_DisTrkCandAuxDyn.disTrkCand_refit_ndofsum_br_pix1
HLT_DisTrkCandAuxDyn.disTrkCand_refit_ndofsum_br_pix2
HLT_DisTrkCandAuxDyn.disTrkCand_refit_ndofsum_br_pix3
HLT_DisTrkCandAuxDyn.disTrkCand_refit_ndofsum_br_sct1
HLT_DisTrkCandAuxDyn.disTrkCand_refit_ndofsum_br_sct2
HLT_DisTrkCandAuxDyn.disTrkCand_refit_ndofsum_br_sct3
HLT_DisTrkCandAuxDyn.disTrkCand_refit_ndofsum_br_sct4
HLT_DisTrkCandAuxDyn.disTrkCand_refit_phi
HLT_DisTrkCandAuxDyn.disTrkCand_refit_phi_wrtVtx
HLT_DisTrkCandAuxDyn.disTrkCand_refit_pt
HLT_DisTrkCandAuxDyn.disTrkCand_refit_pt_wrtVtx
HLT_DisTrkCandAuxDyn.disTrkCand_refit_z0
HLT_DisTrkCandAuxDyn.disTrkCand_refit_z0_wrtVtx
HLT_DisTrkCandAuxDyn.disTrkCand_z0
HLT_DisTrkCandAuxDyn.disTrkCand_z0_wrtVtx
HLT_EBWeight
HLT_EBWeightAux.
HLT_EMRoIs
HLT_FSLRT_TrackCount
HLT_FSLRT_TrackCountAux.
HLT_FSLRT_TrackCountAuxDyn.counts
HLT_FSLRT_TrackCountAuxDyn.ntrks
HLT_FSLRT_TrackCountAuxDyn.pTcuts
HLT_FSRoI
HLT_FastCaloEMClusters
HLT_FastCaloEMClustersAux.
HLT_FastCaloEMClustersAuxDyn.viewIndex
HLT_FastCaloEMClusters_FWD
HLT_FastCaloEMClusters_FWDAux.
HLT_FastCaloRinger
HLT_FastCaloRingerAux.
HLT_FastCaloRingerAuxDyn.viewIndex
HLT_FastElectrons
HLT_FastElectronsAux.
HLT_FastElectronsAuxDyn.viewIndex
HLT_FastElectrons_LRT
HLT_FastElectrons_LRTAux.
HLT_FastElectrons_LRTAuxDyn.viewIndex
HLT_FastPhotons
HLT_FastPhotonsAux.
HLT_FastPhotonsAuxDyn.viewIndex
HLT_HICaloEMClusters
HLT_HICaloEMClustersAux.
HLT_HIEventShapeEG
HLT_HIEventShapeEGAux.
HLT_HPtdEdxTrk
HLT_HPtdEdxTrkAux.
HLT_HPtdEdxTrkAuxDyn.HPtdEdxTrk_a0beam
HLT_HPtdEdxTrkAuxDyn.HPtdEdxTrk_dedx
HLT_HPtdEdxTrkAuxDyn.HPtdEdxTrk_eta
HLT_HPtdEdxTrkAuxDyn.HPtdEdxTrk_n_hdedx_hits_1p45
HLT_HPtdEdxTrkAuxDyn.HPtdEdxTrk_n_hdedx_hits_1p50
HLT_HPtdEdxTrkAuxDyn.HPtdEdxTrk_n_hdedx_hits_1p55
HLT_HPtdEdxTrkAuxDyn.HPtdEdxTrk_n_hdedx_hits_1p60
HLT_HPtdEdxTrkAuxDyn.HPtdEdxTrk_n_hdedx_hits_1p65
HLT_HPtdEdxTrkAuxDyn.HPtdEdxTrk_n_hdedx_hits_1p70
HLT_HPtdEdxTrkAuxDyn.HPtdEdxTrk_n_hdedx_hits_1p75
HLT_HPtdEdxTrkAuxDyn.HPtdEdxTrk_n_hdedx_hits_1p80
HLT_HPtdEdxTrkAuxDyn.HPtdEdxTrk_n_hits_inner
HLT_HPtdEdxTrkAuxDyn.HPtdEdxTrk_n_hits_innermost
HLT_HPtdEdxTrkAuxDyn.HPtdEdxTrk_n_hits_pix
HLT_HPtdEdxTrkAuxDyn.HPtdEdxTrk_n_hits_sct
HLT_HPtdEdxTrkAuxDyn.HPtdEdxTrk_phi
HLT_HPtdEdxTrkAuxDyn.HPtdEdxTrk_pt
HLT_HitDV
HLT_HitDVAux.
HLT_HitDVAuxDyn.hitDV_bdt_score
HLT_HitDVAuxDyn.hitDV_ly0_sp_frac
HLT_HitDVAuxDyn.hitDV_ly1_sp_frac
HLT_HitDVAuxDyn.hitDV_ly2_sp_frac
HLT_HitDVAuxDyn.hitDV_ly3_sp_frac
HLT_HitDVAuxDyn.hitDV_ly4_sp_frac
HLT_HitDVAuxDyn.hitDV_ly5_sp_frac
HLT_HitDVAuxDyn.hitDV_ly6_sp_frac
HLT_HitDVAuxDyn.hitDV_ly7_sp_frac
HLT_HitDVAuxDyn.hitDV_n_track_qual
HLT_HitDVAuxDyn.hitDV_seed_eta
HLT_HitDVAuxDyn.hitDV_seed_phi
HLT_HitDVAuxDyn.hitDV_seed_type
HLT_IDTrack_Bjet_FTF
HLT_IDTrack_Bjet_FTFAux.
HLT_IDTrack_Bjet_FTFAuxDyn.viewIndex
HLT_IDTrack_Bjet_IDTrig
HLT_IDTrack_Bjet_IDTrigAux.
HLT_IDTrack_Bjet_IDTrigAuxDyn.btagIp_d0
HLT_IDTrack_Bjet_IDTrigAuxDyn.btagIp_d0Uncertainty
HLT_IDTrack_Bjet_IDTrigAuxDyn.btagIp_trackDisplacement
HLT_IDTrack_Bjet_IDTrigAuxDyn.btagIp_trackMomentum
HLT_IDTrack_Bjet_IDTrigAuxDyn.btagIp_z0SinTheta
HLT_IDTrack_Bjet_IDTrigAuxDyn.btagIp_z0SinThetaUncertainty
HLT_IDTrack_Bjet_IDTrigAuxDyn.viewIndex
HLT_IDTrack_Bmumux_FTF
HLT_IDTrack_Bmumux_FTFAux.
HLT_IDTrack_Bmumux_FTFAuxDyn.viewIndex
HLT_IDTrack_Bmumux_IDTrig
HLT_IDTrack_Bmumux_IDTrigAux.
HLT_IDTrack_Bmumux_IDTrigAuxDyn.viewIndex
HLT_IDTrack_Cosmic_EFID
HLT_IDTrack_Cosmic_EFIDAux.
HLT_IDTrack_Cosmic_FTF
HLT_IDTrack_Cosmic_FTFAux.
HLT_IDTrack_Cosmic_IDTrig
HLT_IDTrack_Cosmic_IDTrigAux.
HLT_IDTrack_ElecLRT_FTF
HLT_IDTrack_ElecLRT_FTFAux.
HLT_IDTrack_ElecLRT_FTFAuxDyn.viewIndex
HLT_IDTrack_ElecLRT_IDTrig
HLT_IDTrack_ElecLRT_IDTrigAux.
HLT_IDTrack_ElecLRT_IDTrigAuxDyn.viewIndex
HLT_IDTrack_Electron_FTF
HLT_IDTrack_Electron_FTFAux.
HLT_IDTrack_Electron_FTFAuxDyn.viewIndex
HLT_IDTrack_Electron_GSF
HLT_IDTrack_Electron_GSFAux.
HLT_IDTrack_Electron_GSFAuxDyn.viewIndex
HLT_IDTrack_Electron_IDTrig
HLT_IDTrack_Electron_IDTrigAux.
HLT_IDTrack_Electron_IDTrigAuxDyn.viewIndex
HLT_IDTrack_FSLRT_FTF
HLT_IDTrack_FSLRT_FTFAux.
HLT_IDTrack_FSLRT_IDTrig
HLT_IDTrack_FSLRT_IDTrigAux.
HLT_IDTrack_FS_FTF
HLT_IDTrack_FS_FTFAux.
HLT_IDTrack_FS_FTFAuxDyn.passPFTrackPresel
HLT_IDTrack_MinBias_IDTrig
HLT_IDTrack_MinBias_IDTrigAux.
HLT_IDTrack_MuonIso_FTF
HLT_IDTrack_MuonIso_FTFAux.
HLT_IDTrack_MuonIso_FTFAuxDyn.viewIndex
HLT_IDTrack_MuonIso_IDTrig
HLT_IDTrack_MuonIso_IDTrigAux.
HLT_IDTrack_MuonIso_IDTrigAuxDyn.viewIndex
HLT_IDTrack_MuonLRT_FTF
HLT_IDTrack_MuonLRT_FTFAux.
HLT_IDTrack_MuonLRT_FTFAuxDyn.viewIndex
HLT_IDTrack_MuonLRT_IDTrig
HLT_IDTrack_MuonLRT_IDTrigAux.
HLT_IDTrack_MuonLRT_IDTrigAuxDyn.viewIndex
HLT_IDTrack_Muon_FTF
HLT_IDTrack_Muon_FTFAux.
HLT_IDTrack_Muon_FTFAuxDyn.viewIndex
HLT_IDTrack_Muon_IDTrig
HLT_IDTrack_Muon_IDTrigAux.
HLT_IDTrack_Muon_IDTrigAuxDyn.viewIndex
HLT_IDTrack_TauCore_FTF
HLT_IDTrack_TauCore_FTFAux.
HLT_IDTrack_TauCore_FTFAuxDyn.viewIndex
HLT_IDTrack_TauIso_FTF
HLT_IDTrack_TauIso_FTFAux.
HLT_IDTrack_TauIso_FTFAuxDyn.viewIndex
HLT_IDTrack_Tau_FTF
HLT_IDTrack_Tau_FTFAux.
HLT_IDTrack_Tau_IDTrig
HLT_IDTrack_Tau_IDTrigAux.
HLT_IDTrack_Tau_IDTrigAuxDyn.viewIndex
HLT_IDVertex_FS
HLT_IDVertex_FSAux.
HLT_IDVertex_FSJet
HLT_IDVertex_FSJetAux.
HLT_IDVertex_FSLRT
HLT_IDVertex_FSLRTAux.
HLT_IDVertex_Tau
HLT_IDVertex_TauAux.
HLT_IDVertex_TauAuxDyn.viewIndex
HLT_JETRoI
HLT_LArPS_AllCaloClusters
HLT_LArPS_AllCaloClustersAux.
HLT_LArPS_AllCaloClustersAuxDyn.viewIndex
HLT_LArPS_AllCaloEMClusters
HLT_LArPS_AllCaloEMClustersAux.
HLT_LArPS_AllCaloEMClustersAuxDyn.viewIndex
HLT_METRoI
HLT_MET_cell
HLT_MET_cellAux.
HLT_MET_cvfpufit
HLT_MET_cvfpufitAux.
HLT_MET_mht
HLT_MET_mhtAux.
HLT_MET_mhtpufit_em_subjesgscIS
HLT_MET_mhtpufit_em_subjesgscISAux.
HLT_MET_mhtpufit_pf_subjesgscIS
HLT_MET_mhtpufit_pf_subjesgscISAux.
HLT_MET_pfopufit
HLT_MET_pfopufitAux.
HLT_MET_pfsum
HLT_MET_pfsumAux.
HLT_MET_pfsum_cssk
HLT_MET_pfsum_csskAux.
HLT_MET_pfsum_vssk
HLT_MET_pfsum_vsskAux.
HLT_MET_tc
HLT_MET_tcAux.
HLT_MET_tc_em
HLT_MET_tc_emAux.
HLT_MET_tcpufit
HLT_MET_tcpufitAux.
HLT_MET_trkmht
HLT_MET_trkmhtAux.
HLT_MSExtrapolatedMuons_FSTrackParticles
HLT_MSExtrapolatedMuons_FSTrackParticlesAux.
HLT_MSExtrapolatedMuons_FSTrackParticlesAuxDyn.viewIndex
HLT_MSExtrapolatedMuons_RoITrackParticles
HLT_MSExtrapolatedMuons_RoITrackParticlesAux.
HLT_MSExtrapolatedMuons_RoITrackParticlesAuxDyn.viewIndex
HLT_MSOnlyExtrapolatedMuons_FSTrackParticles
HLT_MSOnlyExtrapolatedMuons_FSTrackParticlesAux.
HLT_MURoIs
HLT_MbtsBitsContainer
HLT_MbtsBitsContainerAux.
HLT_MuonL2CBInfo
HLT_MuonL2CBInfoAux.
HLT_MuonL2CBInfoAuxDyn.viewIndex
HLT_MuonL2CBInfoIOmode
HLT_MuonL2CBInfoIOmodeAux.
HLT_MuonL2CBInfoIOmodeAuxDyn.viewIndex
HLT_MuonL2CBInfoLRT
HLT_MuonL2CBInfoLRTAux.
HLT_MuonL2CBInfoLRTAuxDyn.viewIndex
HLT_MuonL2CBInfol2mtmode
HLT_MuonL2CBInfol2mtmodeAux.
HLT_MuonL2CBInfol2mtmodeAuxDyn.viewIndex
HLT_MuonL2ISInfo
HLT_MuonL2ISInfoAux.
HLT_MuonL2SAInfo
HLT_MuonL2SAInfoAux.
HLT_MuonL2SAInfoAuxDyn.viewIndex
HLT_MuonL2SAInfoIOmode
HLT_MuonL2SAInfoIOmodeAux.
HLT_MuonL2SAInfoIOmodeAuxDyn.viewIndex
HLT_MuonL2SAInfol2mtmode
HLT_MuonL2SAInfol2mtmodeAux.
HLT_MuonL2SAInfol2mtmodeAuxDyn.viewIndex
HLT_MuonsCB_FS
HLT_MuonsCB_FSAux.
HLT_MuonsCB_FSAuxDyn.viewIndex
HLT_MuonsCB_LRT
HLT_MuonsCB_LRTAux.
HLT_MuonsCB_LRTAuxDyn.viewIndex
HLT_MuonsCB_RoI
HLT_MuonsCB_RoIAux.
HLT_MuonsCB_RoIAuxDyn.viewIndex
HLT_MuonsIso
HLT_MuonsIsoAux.
HLT_MuonsIsoAuxDyn.ptcone02
HLT_MuonsIsoAuxDyn.ptcone03
HLT_MuonsIsoAuxDyn.viewIndex
HLT_Muons_FS
HLT_Muons_FSAux.
HLT_Muons_FSAuxDyn.viewIndex
HLT_Muons_RoI
HLT_Muons_RoIAux.
HLT_Muons_RoIAuxDyn.viewIndex
HLT_NoMuonDiElecPrecision
HLT_NoMuonDiElecPrecisionAux.
HLT_Roi_Bjet
HLT_Roi_Bmumux
HLT_Roi_FastElectron
HLT_Roi_FastElectron_LRT
HLT_Roi_FastPhoton
HLT_Roi_L2SAMuon
HLT_Roi_L2SAMuonForEF
HLT_Roi_L2SAMuon_LRT
HLT_Roi_LArPEBHLT
HLT_Roi_MuonIso
HLT_Roi_Tau
HLT_Roi_TauCore
HLT_Roi_TauIso
HLT_Roi_TauIsoBDT
HLT_SpacePointCounts
HLT_SpacePointCountsAux.
HLT_TAURoI
HLT_TopoCaloClusters
HLT_TopoCaloClustersAux.
HLT_TopoCaloClustersFS
HLT_TopoCaloClustersFSAux.
HLT_TopoCaloClustersFSAuxDyn.nCells
HLT_TopoCaloClustersHIRoI
HLT_TopoCaloClustersHIRoIAux.
HLT_TopoCaloClustersLC
HLT_TopoCaloClustersLCAux.
HLT_TopoCaloClustersLCAuxDyn.nCells
HLT_TopoCaloClustersLCFS
HLT_TopoCaloClustersLCFSAux.
HLT_TopoCaloClustersLCFSAuxDyn.calE
HLT_TopoCaloClustersLCFSAuxDyn.calEta
HLT_TopoCaloClustersLCFSAuxDyn.calPhi
HLT_TopoCaloClustersRoI
HLT_TopoCaloClustersRoIAux.
HLT_TopoCaloClustersRoIAuxDyn.nCells
HLT_TopoCaloClustersRoIAuxDyn.viewIndex
HLT_TopoCaloClustersRoI_LRT
HLT_TopoCaloClustersRoI_LRTAux.
HLT_TopoCaloClustersRoI_LRTAuxDyn.nCells
HLT_TopoCaloClustersRoI_LRTAuxDyn.viewIndex
HLT_TrackCount
HLT_TrackCountAux.
HLT_TrigEMClusters
HLT_TrigEMClustersAux.
HLT_TrigEMClustersAuxDyn.viewIndex
HLT_TrigTRTHTCounts
HLT_TrigTRTHTCountsAux.
HLT_TrigTRTHTCountsAuxDyn.viewIndex
HLT_TrigTauRecMerged_CaloOnly
HLT_TrigTauRecMerged_CaloOnlyAux.
HLT_TrigTauRecMerged_CaloOnlyAuxDyn.viewIndex
HLT_TrigTauRecMerged_LLP
HLT_TrigTauRecMerged_LLPAux.
HLT_TrigTauRecMerged_LLPAuxDyn.viewIndex
HLT_TrigTauRecMerged_MVA
HLT_TrigTauRecMerged_MVAAux.
HLT_TrigTauRecMerged_MVAAuxDyn.viewIndex
HLT_TrigTauRecMerged_Precision
HLT_TrigTauRecMerged_PrecisionAux.
HLT_TrigTauRecMerged_PrecisionAuxDyn.viewIndex
HLT_TrigTauRecMerged_Presel
HLT_TrigTauRecMerged_PreselAux.
HLT_bJets
HLT_bJetsAux.
HLT_bJetsAuxDyn.JVFCorr
HLT_bJetsAuxDyn.Jvt
HLT_bJetsAuxDyn.SumPtTrkPt500
HLT_bJetsAuxDyn.btaggingLink
HLT_bJetsAuxDyn.viewIndex
HLT_dEdxTrk
HLT_dEdxTrkAux.
HLT_dEdxTrkAuxDyn.dEdxTrk_a0beam
HLT_dEdxTrkAuxDyn.dEdxTrk_dedx
HLT_dEdxTrkAuxDyn.dEdxTrk_dedx_n_usedhits
HLT_dEdxTrkAuxDyn.dEdxTrk_eta
HLT_dEdxTrkAuxDyn.dEdxTrk_id
HLT_dEdxTrkAuxDyn.dEdxTrk_n_hits_inner
HLT_dEdxTrkAuxDyn.dEdxTrk_n_hits_innermost
HLT_dEdxTrkAuxDyn.dEdxTrk_n_hits_pix
HLT_dEdxTrkAuxDyn.dEdxTrk_n_hits_sct
HLT_dEdxTrkAuxDyn.dEdxTrk_phi
HLT_dEdxTrkAuxDyn.dEdxTrk_pt
HLT_eEMRoIs
HLT_eTAURoIs
HLT_egamma_Electrons
HLT_egamma_ElectronsAux.
HLT_egamma_ElectronsAuxDyn.viewIndex
HLT_egamma_Electrons_GSF
HLT_egamma_Electrons_GSFAux.
HLT_egamma_Electrons_GSFAuxDyn.viewIndex
HLT_egamma_Electrons_LRT
HLT_egamma_Electrons_LRTAux.
HLT_egamma_Electrons_LRTAuxDyn.viewIndex
HLT_egamma_Photons
HLT_egamma_PhotonsAux.
HLT_egamma_PhotonsAuxDyn.viewIndex
HLT_jTAURoIs
HLT_jet_seed
HLT_jet_seedAux.
HLT_jet_seedAuxDyn.viewIndex
HLT_tautrack_LLP
HLT_tautrack_LLPAux.
HLT_tautrack_LLPAuxDyn.viewIndex
HLT_tautrack_MVA
HLT_tautrack_MVAAux.
HLT_tautrack_MVAAuxDyn.d0SigTJVA
HLT_tautrack_MVAAuxDyn.d0TJVA
HLT_tautrack_MVAAuxDyn.viewIndex
HLT_tautrack_MVAAuxDyn.z0sinthetaSigTJVA
HLT_tautrack_MVAAuxDyn.z0sinthetaTJVA
HLT_tautrack_Precision
HLT_tautrack_PrecisionAux.
HLT_tautrack_Presel
HLT_tautrack_PreselAux.
HLT_vtx_z
HLT_vtx_zAux.
InDetDisappearingTrackParticles
InDetDisappearingTrackParticlesAux.
InDetDisappearingTrackParticlesAuxDyn.TRTdEdx
InDetDisappearingTrackParticlesAuxDyn.TRTdEdxUsedHits
InDetDisappearingTrackParticlesAuxDyn.eProbabilityNN
InDetDisappearingTrackParticlesAuxDyn.nBC_meas
InDetDisappearingTrackParticlesAuxDyn.trackLink
InDetDisappearingTrackParticlesAuxDyn.truthMatchProbability
InDetDisappearingTrackParticlesAuxDyn.truthOrigin
InDetDisappearingTrackParticlesAuxDyn.truthParticleLink
InDetDisappearingTrackParticlesAuxDyn.truthType
InDetForwardTrackParticles
InDetForwardTrackParticlesAux.
InDetForwardTrackParticlesAuxDyn.TRTdEdx
InDetForwardTrackParticlesAuxDyn.TRTdEdxUsedHits
InDetForwardTrackParticlesAuxDyn.eProbabilityNN
InDetForwardTrackParticlesAuxDyn.nBC_meas
InDetForwardTrackParticlesAuxDyn.trackLink
InDetForwardTrackParticlesAuxDyn.truthMatchProbability
InDetForwardTrackParticlesAuxDyn.truthOrigin
InDetForwardTrackParticlesAuxDyn.truthParticleLink
InDetForwardTrackParticlesAuxDyn.truthType
InDetLargeD0TrackParticles
InDetLargeD0TrackParticlesAux.
InDetLargeD0TrackParticlesAuxDyn.TRTdEdx
InDetLargeD0TrackParticlesAuxDyn.TRTdEdxUsedHits
InDetLargeD0TrackParticlesAuxDyn.eProbabilityNN
InDetLargeD0TrackParticlesAuxDyn.nBC_meas
InDetLargeD0TrackParticlesAuxDyn.trackLink
InDetLargeD0TrackParticlesAuxDyn.truthMatchProbability
InDetLargeD0TrackParticlesAuxDyn.truthOrigin
InDetLargeD0TrackParticlesAuxDyn.truthParticleLink
InDetLargeD0TrackParticlesAuxDyn.truthType
InDetTrackParticles
InDetTrackParticlesAssociatedClusters
InDetTrackParticlesAssociatedClustersAux.
InDetTrackParticlesAssociatedClustersAuxDyn.CellLink
InDetTrackParticlesAssociatedClusters_links
InDetTrackParticlesAux.
InDetTrackParticlesAuxDyn.TRTdEdx
InDetTrackParticlesAuxDyn.TRTdEdxUsedHits
InDetTrackParticlesAuxDyn.eProbabilityNN
InDetTrackParticlesAuxDyn.nBC_meas
InDetTrackParticlesAuxDyn.trackLink
InDetTrackParticlesAuxDyn.truthMatchProbability
InDetTrackParticlesAuxDyn.truthOrigin
InDetTrackParticlesAuxDyn.truthParticleLink
InDetTrackParticlesAuxDyn.truthType
InDetTrackParticlesClusterAssociations
InDetTrackParticlesClusterAssociationsAux.
IsCalibration
IsSimulation
IsTestBeam
JetETMissChargedParticleFlowObjects
JetETMissChargedParticleFlowObjectsAux.
JetETMissChargedParticleFlowObjectsAuxDyn.FE_ElectronLinks
JetETMissChargedParticleFlowObjectsAuxDyn.FE_MuonLinks
JetETMissChargedParticleFlowObjectsAuxDyn.FE_PhotonLinks
JetETMissChargedParticleFlowObjectsAuxDyn.FE_TauLinks
JetETMissChargedParticleFlowObjectsAuxDyn.IsInDenseEnvironment
JetETMissChargedParticleFlowObjectsAuxDyn.TracksExpectedEnergyDeposit
JetETMissLCNeutralParticleFlowObjects
JetETMissLCNeutralParticleFlowObjectsAux.
JetETMissLCNeutralParticleFlowObjectsAuxDyn.eta
JetETMissLCNeutralParticleFlowObjectsAuxDyn.m
JetETMissLCNeutralParticleFlowObjectsAuxDyn.phi
JetETMissLCNeutralParticleFlowObjectsAuxDyn.pt
JetETMissNeutralParticleFlowObjects
JetETMissNeutralParticleFlowObjectsAux.
JetETMissNeutralParticleFlowObjectsAuxDyn.AVG_LAR_Q
JetETMissNeutralParticleFlowObjectsAuxDyn.AVG_TILE_Q
JetETMissNeutralParticleFlowObjectsAuxDyn.BADLARQ_FRAC
JetETMissNeutralParticleFlowObjectsAuxDyn.CENTER_LAMBDA
JetETMissNeutralParticleFlowObjectsAuxDyn.CENTER_MAG
JetETMissNeutralParticleFlowObjectsAuxDyn.EM_PROBABILITY
JetETMissNeutralParticleFlowObjectsAuxDyn.ENG_BAD_CELLS
JetETMissNeutralParticleFlowObjectsAuxDyn.ENG_POS
JetETMissNeutralParticleFlowObjectsAuxDyn.FE_ElectronLinks
JetETMissNeutralParticleFlowObjectsAuxDyn.FE_MuonLinks
JetETMissNeutralParticleFlowObjectsAuxDyn.FE_PhotonLinks
JetETMissNeutralParticleFlowObjectsAuxDyn.FE_TauLinks
JetETMissNeutralParticleFlowObjectsAuxDyn.FE_efrac_matched_muon
JetETMissNeutralParticleFlowObjectsAuxDyn.FE_nMatchedMuons
JetETMissNeutralParticleFlowObjectsAuxDyn.ISOLATION
JetETMissNeutralParticleFlowObjectsAuxDyn.LAYERENERGY_EMB1
JetETMissNeutralParticleFlowObjectsAuxDyn.LAYERENERGY_EMB2
JetETMissNeutralParticleFlowObjectsAuxDyn.LAYERENERGY_EMB3
JetETMissNeutralParticleFlowObjectsAuxDyn.LAYERENERGY_EME1
JetETMissNeutralParticleFlowObjectsAuxDyn.LAYERENERGY_EME2
JetETMissNeutralParticleFlowObjectsAuxDyn.LAYERENERGY_EME3
JetETMissNeutralParticleFlowObjectsAuxDyn.LAYERENERGY_FCAL0
JetETMissNeutralParticleFlowObjectsAuxDyn.LAYERENERGY_FCAL1
JetETMissNeutralParticleFlowObjectsAuxDyn.LAYERENERGY_FCAL2
JetETMissNeutralParticleFlowObjectsAuxDyn.LAYERENERGY_HEC0
JetETMissNeutralParticleFlowObjectsAuxDyn.LAYERENERGY_HEC1
JetETMissNeutralParticleFlowObjectsAuxDyn.LAYERENERGY_HEC2
JetETMissNeutralParticleFlowObjectsAuxDyn.LAYERENERGY_HEC3
JetETMissNeutralParticleFlowObjectsAuxDyn.LAYERENERGY_MINIFCAL0
JetETMissNeutralParticleFlowObjectsAuxDyn.LAYERENERGY_MINIFCAL1
JetETMissNeutralParticleFlowObjectsAuxDyn.LAYERENERGY_MINIFCAL2
JetETMissNeutralParticleFlowObjectsAuxDyn.LAYERENERGY_MINIFCAL3
JetETMissNeutralParticleFlowObjectsAuxDyn.LAYERENERGY_PreSamplerB
JetETMissNeutralParticleFlowObjectsAuxDyn.LAYERENERGY_PreSamplerE
JetETMissNeutralParticleFlowObjectsAuxDyn.LAYERENERGY_TILE0
JetETMissNeutralParticleFlowObjectsAuxDyn.LAYERENERGY_TileBar0
JetETMissNeutralParticleFlowObjectsAuxDyn.LAYERENERGY_TileBar1
JetETMissNeutralParticleFlowObjectsAuxDyn.LAYERENERGY_TileBar2
JetETMissNeutralParticleFlowObjectsAuxDyn.LAYERENERGY_TileExt0
JetETMissNeutralParticleFlowObjectsAuxDyn.LAYERENERGY_TileExt1
JetETMissNeutralParticleFlowObjectsAuxDyn.LAYERENERGY_TileExt2
JetETMissNeutralParticleFlowObjectsAuxDyn.LAYERENERGY_TileGap1
JetETMissNeutralParticleFlowObjectsAuxDyn.LAYERENERGY_TileGap2
JetETMissNeutralParticleFlowObjectsAuxDyn.LAYERENERGY_TileGap3
JetETMissNeutralParticleFlowObjectsAuxDyn.SECOND_LAMBDA
JetETMissNeutralParticleFlowObjectsAuxDyn.SECOND_R
JetETMissNeutralParticleFlowObjectsAuxDyn.TIMING
L1TopoErrorFlags_Legacy
L1TopoErrorFlags_LegacyAux.
LArNoisyROSummary
LRTElectrons
LRTElectronsAux.
LRTElectronsAuxDyn.LHLoose
LRTElectronsAuxDyn.LHMedium
LRTElectronsAuxDyn.LHTight
LRTElectronsAuxDyn.LHValue
LRTElectronsAuxDyn.Loose
LRTElectronsAuxDyn.Medium
LRTElectronsAuxDyn.Tight
LRTElectronsAuxDyn.ambiguityType
LRTElectronsAuxDyn.asy1
LRTElectronsAuxDyn.barys1
LRTElectronsAuxDyn.deltaEta1PearDistortion
LRTElectronsAuxDyn.e1152
LRTElectronsAuxDyn.e132
LRTElectronsAuxDyn.e233
LRTElectronsAuxDyn.e235
LRTElectronsAuxDyn.e237
LRTElectronsAuxDyn.e255
LRTElectronsAuxDyn.e2ts1
LRTElectronsAuxDyn.e2tsts1
LRTElectronsAuxDyn.ecore
LRTElectronsAuxDyn.ehad1
LRTElectronsAuxDyn.emaxs1
LRTElectronsAuxDyn.emins1
LRTElectronsAuxDyn.ethad
LRTElectronsAuxDyn.ethad1
LRTElectronsAuxDyn.pos
LRTElectronsAuxDyn.pos7
LRTElectronsAuxDyn.poscs1
LRTElectronsAuxDyn.poscs2
LRTElectronsAuxDyn.r33over37allcalo
LRTElectronsAuxDyn.truthOrigin
LRTElectronsAuxDyn.truthParticleLink
LRTElectronsAuxDyn.truthType
LRTElectronsAuxDyn.widths1
LRTElectronsAuxDyn.widths2
LRTGSFTrackParticles
LRTGSFTrackParticlesAux.
LRTGSFTrackParticlesAuxDyn.QoverPLM
LRTGSFTrackParticlesAuxDyn.TRTdEdx
LRTGSFTrackParticlesAuxDyn.TRTdEdxUsedHits
LRTGSFTrackParticlesAuxDyn.eProbabilityNN
LRTGSFTrackParticlesAuxDyn.originalTrackParticle
LRTGSFTrackParticlesAuxDyn.parameterPX
LRTGSFTrackParticlesAuxDyn.parameterPY
LRTGSFTrackParticlesAuxDyn.parameterPZ
LRTGSFTrackParticlesAuxDyn.parameterPosition
LRTGSFTrackParticlesAuxDyn.parameterX
LRTGSFTrackParticlesAuxDyn.parameterY
LRTGSFTrackParticlesAuxDyn.parameterZ
LRTGSFTrackParticlesAuxDyn.trackLink
LRTGSFTrackParticlesAuxDyn.trackParameterCovarianceMatrices
LRTGSFTrackParticlesAuxDyn.truthMatchProbability
LRTGSFTrackParticlesAuxDyn.truthOrigin
LRTGSFTrackParticlesAuxDyn.truthParticleLink
LRTGSFTrackParticlesAuxDyn.truthType
LRTegammaClusters
LRTegammaClustersAux.
LRTegammaClustersAuxDyn.BadChannelList
LRTegammaClustersAuxDyn.CellLink
LRTegammaClustersAuxDyn.ETA1CALOFRAME
LRTegammaClustersAuxDyn.ETA2CALOFRAME
LRTegammaClustersAuxDyn.ETACALOFRAME
LRTegammaClustersAuxDyn.PHI1CALOFRAME
LRTegammaClustersAuxDyn.PHI2CALOFRAME
LRTegammaClustersAuxDyn.PHICALOFRAME
LRTegammaClustersAuxDyn.constituentClusterLinks
LRTegammaClustersAuxDyn.emax_sampl
LRTegammaClustersAuxDyn.eta_sampl
LRTegammaClustersAuxDyn.etamax_sampl
LRTegammaClustersAuxDyn.phi_sampl
LRTegammaClustersAuxDyn.phimax_sampl
LRTegammaTruthParticles
LRTegammaTruthParticlesAux.
LRTegammaTruthParticlesAuxDyn.recoElectronLink
LRTegammaTruthParticlesAuxDyn.recoPhotonLink
LRTegammaTruthParticlesAuxDyn.truthOrigin
LRTegammaTruthParticlesAuxDyn.truthParticleLink
LRTegammaTruthParticlesAuxDyn.truthType
LVL1EmTauRoIs
LVL1EmTauRoIsAux.
LVL1EnergySumRoI
LVL1EnergySumRoIAux.
LVL1JetEtRoI
LVL1JetEtRoIAux.
LVL1JetRoIs
LVL1JetRoIsAux.
LVL1MuonRoIs
LVL1MuonRoIsAux.
LVL1MuonRoIsAuxDyn.thresholdPatterns
LumiBlockN
MBTSContainer
MSDisplacedVertex
MSDisplacedVertexAux.
MSOnlyExtraPolatedMuonsLRTTrackParticles
MSOnlyExtraPolatedMuonsLRTTrackParticlesAux.
MSOnlyExtraPolatedMuonsLRTTrackParticlesAuxDyn.TRTdEdx
MSOnlyExtraPolatedMuonsLRTTrackParticlesAuxDyn.TRTdEdxUsedHits
MSOnlyExtraPolatedMuonsLRTTrackParticlesAuxDyn.alignEffectChId
MSOnlyExtraPolatedMuonsLRTTrackParticlesAuxDyn.alignEffectDeltaAngle
MSOnlyExtraPolatedMuonsLRTTrackParticlesAuxDyn.alignEffectDeltaTrans
MSOnlyExtraPolatedMuonsLRTTrackParticlesAuxDyn.alignEffectSigmaDeltaAngle
MSOnlyExtraPolatedMuonsLRTTrackParticlesAuxDyn.alignEffectSigmaDeltaTrans
MSOnlyExtraPolatedMuonsLRTTrackParticlesAuxDyn.deltaphi_0
MSOnlyExtraPolatedMuonsLRTTrackParticlesAuxDyn.deltaphi_1
MSOnlyExtraPolatedMuonsLRTTrackParticlesAuxDyn.deltatheta_0
MSOnlyExtraPolatedMuonsLRTTrackParticlesAuxDyn.deltatheta_1
MSOnlyExtraPolatedMuonsLRTTrackParticlesAuxDyn.eProbabilityNN
MSOnlyExtraPolatedMuonsLRTTrackParticlesAuxDyn.parameterPX
MSOnlyExtraPolatedMuonsLRTTrackParticlesAuxDyn.parameterPY
MSOnlyExtraPolatedMuonsLRTTrackParticlesAuxDyn.parameterPZ
MSOnlyExtraPolatedMuonsLRTTrackParticlesAuxDyn.parameterPosition
MSOnlyExtraPolatedMuonsLRTTrackParticlesAuxDyn.parameterX
MSOnlyExtraPolatedMuonsLRTTrackParticlesAuxDyn.parameterY
MSOnlyExtraPolatedMuonsLRTTrackParticlesAuxDyn.parameterZ
MSOnlyExtraPolatedMuonsLRTTrackParticlesAuxDyn.sigmadeltaphi_0
MSOnlyExtraPolatedMuonsLRTTrackParticlesAuxDyn.sigmadeltaphi_1
MSOnlyExtraPolatedMuonsLRTTrackParticlesAuxDyn.sigmadeltatheta_0
MSOnlyExtraPolatedMuonsLRTTrackParticlesAuxDyn.sigmadeltatheta_1
MSOnlyExtraPolatedMuonsLRTTrackParticlesAuxDyn.trackLink
MSOnlyExtraPolatedMuonsLRTTrackParticlesAuxDyn.trackParameterCovarianceMatrices
MSOnlyExtrapolatedMuonTrackParticles
MSOnlyExtrapolatedMuonTrackParticlesAux.
MSOnlyExtrapolatedMuonTrackParticlesAuxDyn.TRTdEdx
MSOnlyExtrapolatedMuonTrackParticlesAuxDyn.TRTdEdxUsedHits
MSOnlyExtrapolatedMuonTrackParticlesAuxDyn.alignEffectChId
MSOnlyExtrapolatedMuonTrackParticlesAuxDyn.alignEffectDeltaAngle
MSOnlyExtrapolatedMuonTrackParticlesAuxDyn.alignEffectDeltaTrans
MSOnlyExtrapolatedMuonTrackParticlesAuxDyn.alignEffectSigmaDeltaAngle
MSOnlyExtrapolatedMuonTrackParticlesAuxDyn.alignEffectSigmaDeltaTrans
MSOnlyExtrapolatedMuonTrackParticlesAuxDyn.deltaphi_0
MSOnlyExtrapolatedMuonTrackParticlesAuxDyn.deltaphi_1
MSOnlyExtrapolatedMuonTrackParticlesAuxDyn.deltatheta_0
MSOnlyExtrapolatedMuonTrackParticlesAuxDyn.deltatheta_1
MSOnlyExtrapolatedMuonTrackParticlesAuxDyn.eProbabilityNN
MSOnlyExtrapolatedMuonTrackParticlesAuxDyn.parameterPX
MSOnlyExtrapolatedMuonTrackParticlesAuxDyn.parameterPY
MSOnlyExtrapolatedMuonTrackParticlesAuxDyn.parameterPZ
MSOnlyExtrapolatedMuonTrackParticlesAuxDyn.parameterPosition
MSOnlyExtrapolatedMuonTrackParticlesAuxDyn.parameterX
MSOnlyExtrapolatedMuonTrackParticlesAuxDyn.parameterY
MSOnlyExtrapolatedMuonTrackParticlesAuxDyn.parameterZ
MSOnlyExtrapolatedMuonTrackParticlesAuxDyn.sigmadeltaphi_0
MSOnlyExtrapolatedMuonTrackParticlesAuxDyn.sigmadeltaphi_1
MSOnlyExtrapolatedMuonTrackParticlesAuxDyn.sigmadeltatheta_0
MSOnlyExtrapolatedMuonTrackParticlesAuxDyn.sigmadeltatheta_1
MSOnlyExtrapolatedMuonTrackParticlesAuxDyn.trackLink
MSOnlyExtrapolatedMuonTrackParticlesAuxDyn.trackParameterCovarianceMatrices
MSOnlyExtrapolatedMuonTrackParticlesAuxDyn.truthOrigin
MSOnlyExtrapolatedMuonTrackParticlesAuxDyn.truthParticleLink
MSOnlyExtrapolatedMuonTrackParticlesAuxDyn.truthType
MSonlyTracklets
MSonlyTrackletsAux.
McChannel
MuonCandidates_FS_ROIs
MuonClusterCollection
MuonClusterCollectionAux.
MuonClusterCollectionAuxDyn.CellLink
MuonClusterCollectionAuxDyn.constituentClusterLinks
MuonClusterCollectionAuxDyn.eta_sampl
MuonClusterCollectionAuxDyn.phi_sampl
MuonClusterCollection_links
MuonSegments
MuonSegmentsAux.
MuonSegmentsAuxDyn.clusterTime
MuonSegmentsAuxDyn.clusterTimeError
MuonSegmentsAuxDyn.clusterTimeValid
MuonSegmentsAuxDyn.muonSegment
MuonSegmentsAuxDyn.truthSegmentLink
MuonSpectrometerTrackParticles
MuonSpectrometerTrackParticlesAux.
MuonSpectrometerTrackParticlesAuxDyn.TRTdEdx
MuonSpectrometerTrackParticlesAuxDyn.TRTdEdxUsedHits
MuonSpectrometerTrackParticlesAuxDyn.eProbabilityNN
MuonSpectrometerTrackParticlesAuxDyn.parameterPX
MuonSpectrometerTrackParticlesAuxDyn.parameterPY
MuonSpectrometerTrackParticlesAuxDyn.parameterPZ
MuonSpectrometerTrackParticlesAuxDyn.parameterPosition
MuonSpectrometerTrackParticlesAuxDyn.parameterX
MuonSpectrometerTrackParticlesAuxDyn.parameterY
MuonSpectrometerTrackParticlesAuxDyn.parameterZ
MuonSpectrometerTrackParticlesAuxDyn.trackLink
MuonSpectrometerTrackParticlesAuxDyn.trackParameterCovarianceMatrices
MuonSpectrometerTrackParticlesAuxDyn.truthOrigin
MuonSpectrometerTrackParticlesAuxDyn.truthParticleLink
MuonSpectrometerTrackParticlesAuxDyn.truthType
MuonTruthParticles
MuonTruthParticlesAux.
MuonTruthParticlesAuxDyn.CaloEntryLayer_cov_extr
MuonTruthParticlesAuxDyn.CaloEntryLayer_px
MuonTruthParticlesAuxDyn.CaloEntryLayer_px_extr
MuonTruthParticlesAuxDyn.CaloEntryLayer_py
MuonTruthParticlesAuxDyn.CaloEntryLayer_py_extr
MuonTruthParticlesAuxDyn.CaloEntryLayer_pz
MuonTruthParticlesAuxDyn.CaloEntryLayer_pz_extr
MuonTruthParticlesAuxDyn.CaloEntryLayer_x
MuonTruthParticlesAuxDyn.CaloEntryLayer_x_extr
MuonTruthParticlesAuxDyn.CaloEntryLayer_y
MuonTruthParticlesAuxDyn.CaloEntryLayer_y_extr
MuonTruthParticlesAuxDyn.CaloEntryLayer_z
MuonTruthParticlesAuxDyn.CaloEntryLayer_z_extr
MuonTruthParticlesAuxDyn.MuonEntryLayer_cov_extr
MuonTruthParticlesAuxDyn.MuonEntryLayer_px
MuonTruthParticlesAuxDyn.MuonEntryLayer_px_extr
MuonTruthParticlesAuxDyn.MuonEntryLayer_py
MuonTruthParticlesAuxDyn.MuonEntryLayer_py_extr
MuonTruthParticlesAuxDyn.MuonEntryLayer_pz
MuonTruthParticlesAuxDyn.MuonEntryLayer_pz_extr
MuonTruthParticlesAuxDyn.MuonEntryLayer_x
MuonTruthParticlesAuxDyn.MuonEntryLayer_x_extr
MuonTruthParticlesAuxDyn.MuonEntryLayer_y
MuonTruthParticlesAuxDyn.MuonEntryLayer_y_extr
MuonTruthParticlesAuxDyn.MuonEntryLayer_z
MuonTruthParticlesAuxDyn.MuonEntryLayer_z_extr
MuonTruthParticlesAuxDyn.MuonExitLayer_cov_extr
MuonTruthParticlesAuxDyn.MuonExitLayer_px
MuonTruthParticlesAuxDyn.MuonExitLayer_px_extr
MuonTruthParticlesAuxDyn.MuonExitLayer_py
MuonTruthParticlesAuxDyn.MuonExitLayer_py_extr
MuonTruthParticlesAuxDyn.MuonExitLayer_pz
MuonTruthParticlesAuxDyn.MuonExitLayer_pz_extr
MuonTruthParticlesAuxDyn.MuonExitLayer_x
MuonTruthParticlesAuxDyn.MuonExitLayer_x_extr
MuonTruthParticlesAuxDyn.MuonExitLayer_y
MuonTruthParticlesAuxDyn.MuonExitLayer_y_extr
MuonTruthParticlesAuxDyn.MuonExitLayer_z
MuonTruthParticlesAuxDyn.MuonExitLayer_z_extr
MuonTruthParticlesAuxDyn.etaLayer1Hits
MuonTruthParticlesAuxDyn.etaLayer2Hits
MuonTruthParticlesAuxDyn.etaLayer3Hits
MuonTruthParticlesAuxDyn.etaLayer4Hits
MuonTruthParticlesAuxDyn.extendedLargeHits
MuonTruthParticlesAuxDyn.extendedSmallHits
MuonTruthParticlesAuxDyn.innerLargeHits
MuonTruthParticlesAuxDyn.innerSmallHits
MuonTruthParticlesAuxDyn.middleLargeHits
MuonTruthParticlesAuxDyn.middleSmallHits
MuonTruthParticlesAuxDyn.nphiLayers
MuonTruthParticlesAuxDyn.nprecLayers
MuonTruthParticlesAuxDyn.ntrigEtaLayers
MuonTruthParticlesAuxDyn.outerLargeHits
MuonTruthParticlesAuxDyn.outerSmallHits
MuonTruthParticlesAuxDyn.phiLayer1Hits
MuonTruthParticlesAuxDyn.phiLayer2Hits
MuonTruthParticlesAuxDyn.phiLayer3Hits
MuonTruthParticlesAuxDyn.phiLayer4Hits
MuonTruthParticlesAuxDyn.recoMuonLink
MuonTruthParticlesAuxDyn.truthCscHits
MuonTruthParticlesAuxDyn.truthMdtHits
MuonTruthParticlesAuxDyn.truthOrigin
MuonTruthParticlesAuxDyn.truthRpcHits
MuonTruthParticlesAuxDyn.truthTgcHits
MuonTruthParticlesAuxDyn.truthType
MuonTruthSegments
MuonTruthSegmentsAux.
MuonTruthSegmentsAuxDyn.recoSegmentLink
MuonTruthSegmentsAuxDyn.truthParticleLink
Muons
MuonsAux.
MuonsAuxDyn.CT_EL_Type
MuonsAuxDyn.CT_ET_FSRCandidateEnergy
MuonsAuxDyn.CT_ET_LRLikelihood
MuonsAuxDyn.ClusterInfo_deltaR
MuonsAuxDyn.ET_Core
MuonsAuxDyn.ET_EMCore
MuonsAuxDyn.ET_HECCore
MuonsAuxDyn.ET_TileCore
MuonsAuxDyn.FSR_CandidateEnergy
MuonsAuxDyn.InnerDetectorPt
MuonsAuxDyn.MuonSpectrometerPt
MuonsAuxDyn.chargedFELinks
MuonsAuxDyn.combinedTrackOutBoundsPrecisionHits
MuonsAuxDyn.d0_staco
MuonsAuxDyn.deltaphi_0
MuonsAuxDyn.deltaphi_1
MuonsAuxDyn.deltatheta_0
MuonsAuxDyn.deltatheta_1
MuonsAuxDyn.extendedClosePrecisionHits
MuonsAuxDyn.extendedOutBoundsPrecisionHits
MuonsAuxDyn.innerClosePrecisionHits
MuonsAuxDyn.innerOutBoundsPrecisionHits
MuonsAuxDyn.isEndcapGoodLayers
MuonsAuxDyn.isSmallGoodSectors
MuonsAuxDyn.middleClosePrecisionHits
MuonsAuxDyn.middleOutBoundsPrecisionHits
MuonsAuxDyn.muon_efrac_matched_FE
MuonsAuxDyn.nUnspoiledCscHits
MuonsAuxDyn.neflowisol20
MuonsAuxDyn.neflowisol30
MuonsAuxDyn.neflowisol40
MuonsAuxDyn.neflowisolCorrBitset
MuonsAuxDyn.neflowisolcoreConeEnergyCorrection
MuonsAuxDyn.neutralFELinks
MuonsAuxDyn.nphiMatchedHitsPerChamberLayer
MuonsAuxDyn.nprecMatchedHitsPerChamberLayer
MuonsAuxDyn.ntrigEtaMatchedHitsPerChamberLayer
MuonsAuxDyn.numEnergyLossPerTrack
MuonsAuxDyn.numberOfGoodPrecisionLayers
MuonsAuxDyn.outerClosePrecisionHits
MuonsAuxDyn.outerOutBoundsPrecisionHits
MuonsAuxDyn.phi0_staco
MuonsAuxDyn.ptcone20
MuonsAuxDyn.ptcone30
MuonsAuxDyn.ptcone40
MuonsAuxDyn.ptconeCorrBitset
MuonsAuxDyn.ptconecoreTrackPtrCorrection
MuonsAuxDyn.ptvarcone20
MuonsAuxDyn.ptvarcone30
MuonsAuxDyn.ptvarcone40
MuonsAuxDyn.qOverPErr_staco
MuonsAuxDyn.qOverP_staco
MuonsAuxDyn.sigmadeltaphi_0
MuonsAuxDyn.sigmadeltaphi_1
MuonsAuxDyn.sigmadeltatheta_0
MuonsAuxDyn.sigmadeltatheta_1
MuonsAuxDyn.theta_staco
MuonsAuxDyn.topoetcone20
MuonsAuxDyn.topoetcone30
MuonsAuxDyn.topoetcone40
MuonsAuxDyn.topoetconeCorrBitset
MuonsAuxDyn.topoetconecoreConeEnergyCorrection
MuonsAuxDyn.truthOrigin
MuonsAuxDyn.truthParticleLink
MuonsAuxDyn.truthType
MuonsAuxDyn.z0_staco
MuonsLRT
MuonsLRTAux.
MuonsLRTAuxDyn.CT_EL_Type
MuonsLRTAuxDyn.CT_ET_FSRCandidateEnergy
MuonsLRTAuxDyn.CT_ET_LRLikelihood
MuonsLRTAuxDyn.ET_Core
MuonsLRTAuxDyn.ET_EMCore
MuonsLRTAuxDyn.ET_HECCore
MuonsLRTAuxDyn.ET_TileCore
MuonsLRTAuxDyn.FSR_CandidateEnergy
MuonsLRTAuxDyn.InnerDetectorPt
MuonsLRTAuxDyn.MuonSpectrometerPt
MuonsLRTAuxDyn.combinedTrackOutBoundsPrecisionHits
MuonsLRTAuxDyn.d0_staco
MuonsLRTAuxDyn.deltaphi_0
MuonsLRTAuxDyn.deltaphi_1
MuonsLRTAuxDyn.deltatheta_0
MuonsLRTAuxDyn.deltatheta_1
MuonsLRTAuxDyn.extendedClosePrecisionHits
MuonsLRTAuxDyn.extendedOutBoundsPrecisionHits
MuonsLRTAuxDyn.innerClosePrecisionHits
MuonsLRTAuxDyn.innerOutBoundsPrecisionHits
MuonsLRTAuxDyn.isEndcapGoodLayers
MuonsLRTAuxDyn.isSmallGoodSectors
MuonsLRTAuxDyn.middleClosePrecisionHits
MuonsLRTAuxDyn.middleOutBoundsPrecisionHits
MuonsLRTAuxDyn.nUnspoiledCscHits
MuonsLRTAuxDyn.numEnergyLossPerTrack
MuonsLRTAuxDyn.numberOfGoodPrecisionLayers
MuonsLRTAuxDyn.outerClosePrecisionHits
MuonsLRTAuxDyn.outerOutBoundsPrecisionHits
MuonsLRTAuxDyn.phi0_staco
MuonsLRTAuxDyn.qOverPErr_staco
MuonsLRTAuxDyn.qOverP_staco
MuonsLRTAuxDyn.sigmadeltaphi_0
MuonsLRTAuxDyn.sigmadeltaphi_1
MuonsLRTAuxDyn.sigmadeltatheta_0
MuonsLRTAuxDyn.sigmadeltatheta_1
MuonsLRTAuxDyn.theta_staco
MuonsLRTAuxDyn.z0_staco
NCB_MuonSegments
NCB_MuonSegmentsAux.
NCB_MuonSegmentsAuxDyn.clusterTime
NCB_MuonSegmentsAuxDyn.clusterTimeError
NCB_MuonSegmentsAuxDyn.clusterTimeValid
NCB_MuonSegmentsAuxDyn.muonSegment
Photons
PhotonsAux.
PhotonsAuxDyn.Loose
PhotonsAuxDyn.Tight
PhotonsAuxDyn.ambiguityLink
PhotonsAuxDyn.ambiguityType
PhotonsAuxDyn.asy1
PhotonsAuxDyn.barys1
PhotonsAuxDyn.chargedFELinks
PhotonsAuxDyn.core57cellsEnergyCorrection
PhotonsAuxDyn.e1152
PhotonsAuxDyn.e132
PhotonsAuxDyn.e233
PhotonsAuxDyn.e235
PhotonsAuxDyn.e237
PhotonsAuxDyn.e255
PhotonsAuxDyn.e2ts1
PhotonsAuxDyn.e2tsts1
PhotonsAuxDyn.ecore
PhotonsAuxDyn.ehad1
PhotonsAuxDyn.emaxs1
PhotonsAuxDyn.emins1
PhotonsAuxDyn.ethad
PhotonsAuxDyn.ethad1
PhotonsAuxDyn.neutralFELinks
PhotonsAuxDyn.pos
PhotonsAuxDyn.pos7
PhotonsAuxDyn.poscs1
PhotonsAuxDyn.poscs2
PhotonsAuxDyn.ptcone20
PhotonsAuxDyn.ptcone30
PhotonsAuxDyn.r33over37allcalo
PhotonsAuxDyn.topoetcone20
PhotonsAuxDyn.topoetcone20ptCorrection
PhotonsAuxDyn.topoetcone30
PhotonsAuxDyn.topoetcone30ptCorrection
PhotonsAuxDyn.topoetcone40
PhotonsAuxDyn.topoetcone40ptCorrection
PhotonsAuxDyn.truthOrigin
PhotonsAuxDyn.truthParticleLink
PhotonsAuxDyn.truthType
PhotonsAuxDyn.widths1
PhotonsAuxDyn.widths2
PrimaryVertices
PrimaryVerticesAux.
PrimaryVerticesAuxDyn.sumPt2
RAWtoESD_mems
RAWtoESD_timings
RunNumber
SlowMuons
SlowMuonsAux.
SlowMuonsAuxDyn.hitEnergy
SlowMuonsAuxDyn.hitError
SlowMuonsAuxDyn.hitIdentifier
SlowMuonsAuxDyn.hitPositionX
SlowMuonsAuxDyn.hitPositionY
SlowMuonsAuxDyn.hitPositionZ
SlowMuonsAuxDyn.hitPropagationTime
SlowMuonsAuxDyn.hitShift
SlowMuonsAuxDyn.hitTOF
SlowMuonsAuxDyn.hitTechnology
Staus
StausAux.
StausAuxDyn.CT_EL_Type
StausAuxDyn.CT_ET_FSRCandidateEnergy
StausAuxDyn.CT_ET_LRLikelihood
StausAuxDyn.ET_Core
StausAuxDyn.ET_EMCore
StausAuxDyn.ET_HECCore
StausAuxDyn.ET_TileCore
StausAuxDyn.FSR_CandidateEnergy
StausAuxDyn.InnerDetectorPt
StausAuxDyn.MuonSpectrometerPt
StausAuxDyn.combinedTrackOutBoundsPrecisionHits
StausAuxDyn.d0_staco
StausAuxDyn.deltaphi_0
StausAuxDyn.deltaphi_1
StausAuxDyn.deltatheta_0
StausAuxDyn.deltatheta_1
StausAuxDyn.extendedClosePrecisionHits
StausAuxDyn.extendedOutBoundsPrecisionHits
StausAuxDyn.innerClosePrecisionHits
StausAuxDyn.innerOutBoundsPrecisionHits
StausAuxDyn.isEndcapGoodLayers
StausAuxDyn.isSmallGoodSectors
StausAuxDyn.middleClosePrecisionHits
StausAuxDyn.middleOutBoundsPrecisionHits
StausAuxDyn.nUnspoiledCscHits
StausAuxDyn.numEnergyLossPerTrack
StausAuxDyn.numberOfGoodPrecisionLayers
StausAuxDyn.outerClosePrecisionHits
StausAuxDyn.outerOutBoundsPrecisionHits
StausAuxDyn.phi0_staco
StausAuxDyn.qOverPErr_staco
StausAuxDyn.qOverP_staco
StausAuxDyn.sigmadeltaphi_0
StausAuxDyn.sigmadeltaphi_1
StausAuxDyn.sigmadeltatheta_0
StausAuxDyn.sigmadeltatheta_1
StausAuxDyn.theta_staco
StausAuxDyn.z0_staco
StreamAOD
SuspectLumiBlocks
SuspectLumiBlocksAux.
TauFinalPi0s
TauFinalPi0sAux.
TauFinalPi0sAuxDyn.pi0PFOLinks
TauHadronicParticleFlowObjects
TauHadronicParticleFlowObjectsAux.
TauJets
TauJetsAux.
TauJetsAuxDyn.ClusterTotalEnergy
TauJetsAuxDyn.ClustersMeanCenterLambda
TauJetsAuxDyn.ClustersMeanEMProbability
TauJetsAuxDyn.ClustersMeanFirstEngDens
TauJetsAuxDyn.ClustersMeanPresamplerFrac
TauJetsAuxDyn.ClustersMeanSecondLambda
TauJetsAuxDyn.EMFRACTIONATEMSCALE_MOVEE3
TauJetsAuxDyn.EMFracFixed
TauJetsAuxDyn.GhostMuonSegmentCount
TauJetsAuxDyn.LeadClusterFrac
TauJetsAuxDyn.NNDecayMode
TauJetsAuxDyn.NNDecayModeProb_1p0n
TauJetsAuxDyn.NNDecayModeProb_1p1n
TauJetsAuxDyn.NNDecayModeProb_1pXn
TauJetsAuxDyn.NNDecayModeProb_3p0n
TauJetsAuxDyn.NNDecayModeProb_3pXn
TauJetsAuxDyn.PFOEngRelDiff
TauJetsAuxDyn.PanTau_DecayModeExtended
TauJetsAuxDyn.TAU_SEEDTRK_SECMAXSTRIPETOVERPT
TauJetsAuxDyn.UpsilonCluster
TauJetsAuxDyn.chargedFELinks
TauJetsAuxDyn.etHotShotDR1
TauJetsAuxDyn.etHotShotDR1OverPtLeadTrk
TauJetsAuxDyn.etHotShotWin
TauJetsAuxDyn.etHotShotWinOverPtLeadTrk
TauJetsAuxDyn.etaCombined
TauJetsAuxDyn.hadLeakFracFixed
TauJetsAuxDyn.leadTrackProbHT
TauJetsAuxDyn.mCombined
TauJetsAuxDyn.nConversionTracks
TauJetsAuxDyn.nFakeTracks
TauJetsAuxDyn.nModifiedIsolationTracks
TauJetsAuxDyn.neutralFELinks
TauJetsAuxDyn.phiCombined
TauJetsAuxDyn.ptCombined
TauJetsAuxDyn.ptIntermediateAxisEM
TauJetsAuxDyn.rho
TauNeutralParticleFlowObjects
TauNeutralParticleFlowObjectsAux.
TauNeutralParticleFlowObjectsAuxDyn.cellBased_CENTER_LAMBDA
TauNeutralParticleFlowObjectsAuxDyn.cellBased_DELTA_PHI
TauNeutralParticleFlowObjectsAuxDyn.cellBased_DELTA_THETA
TauNeutralParticleFlowObjectsAuxDyn.cellBased_EM1CoreFrac
TauNeutralParticleFlowObjectsAuxDyn.cellBased_ENG_FRAC_CORE
TauNeutralParticleFlowObjectsAuxDyn.cellBased_ENG_FRAC_EM
TauNeutralParticleFlowObjectsAuxDyn.cellBased_ENG_FRAC_MAX
TauNeutralParticleFlowObjectsAuxDyn.cellBased_FIRST_ETA
TauNeutralParticleFlowObjectsAuxDyn.cellBased_LATERAL
TauNeutralParticleFlowObjectsAuxDyn.cellBased_LONGITUDINAL
TauNeutralParticleFlowObjectsAuxDyn.cellBased_NHitsInEM1
TauNeutralParticleFlowObjectsAuxDyn.cellBased_NPosECells_EM1
TauNeutralParticleFlowObjectsAuxDyn.cellBased_NPosECells_EM2
TauNeutralParticleFlowObjectsAuxDyn.cellBased_NPosECells_PS
TauNeutralParticleFlowObjectsAuxDyn.cellBased_SECOND_ENG_DENS
TauNeutralParticleFlowObjectsAuxDyn.cellBased_SECOND_LAMBDA
TauNeutralParticleFlowObjectsAuxDyn.cellBased_SECOND_R
TauNeutralParticleFlowObjectsAuxDyn.cellBased_energy_EM1
TauNeutralParticleFlowObjectsAuxDyn.cellBased_energy_EM2
TauNeutralParticleFlowObjectsAuxDyn.cellBased_firstEtaWRTClusterPosition_EM1
TauNeutralParticleFlowObjectsAuxDyn.cellBased_firstEtaWRTClusterPosition_EM2
TauNeutralParticleFlowObjectsAuxDyn.cellBased_secondEtaWRTClusterPosition_EM1
TauNeutralParticleFlowObjectsAuxDyn.cellBased_secondEtaWRTClusterPosition_EM2
TauNeutralParticleFlowObjectsAuxDyn.nPi0Proto
TauPi0Clusters
TauPi0ClustersAux.
TauPi0ClustersAuxDyn.BadChannelList
TauPi0ClustersAuxDyn.CENTER_LAMBDA
TauPi0ClustersAuxDyn.CENTER_MAG
TauPi0ClustersAuxDyn.CENTER_X
TauPi0ClustersAuxDyn.CENTER_Y
TauPi0ClustersAuxDyn.CENTER_Z
TauPi0ClustersAuxDyn.CellLink
TauPi0ClustersAuxDyn.DELTA_ALPHA
TauPi0ClustersAuxDyn.DELTA_PHI
TauPi0ClustersAuxDyn.DELTA_THETA
TauPi0ClustersAuxDyn.DM_WEIGHT
TauPi0ClustersAuxDyn.EM_PROBABILITY
TauPi0ClustersAuxDyn.ENG_FRAC_CORE
TauPi0ClustersAuxDyn.ENG_FRAC_EM
TauPi0ClustersAuxDyn.ENG_FRAC_MAX
TauPi0ClustersAuxDyn.FIRST_ENG_DENS
TauPi0ClustersAuxDyn.FIRST_ETA
TauPi0ClustersAuxDyn.FIRST_PHI
TauPi0ClustersAuxDyn.HAD_WEIGHT
TauPi0ClustersAuxDyn.ISOLATION
TauPi0ClustersAuxDyn.LATERAL
TauPi0ClustersAuxDyn.LONGITUDINAL
TauPi0ClustersAuxDyn.OOC_WEIGHT
TauPi0ClustersAuxDyn.SECOND_ENG_DENS
TauPi0ClustersAuxDyn.SECOND_LAMBDA
TauPi0ClustersAuxDyn.SECOND_R
TauPi0ClustersAuxDyn.emax_sampl
TauPi0ClustersAuxDyn.eta_sampl
TauPi0ClustersAuxDyn.etamax_sampl
TauPi0ClustersAuxDyn.phi_sampl
TauPi0ClustersAuxDyn.phimax_sampl
TauPi0Clusters_links
TauSecondaryVertices
TauSecondaryVerticesAux.
TauShotClusters
TauShotClustersAux.
TauShotClustersAuxDyn.CellLink
TauShotClustersAuxDyn.emax_sampl
TauShotClustersAuxDyn.eta_sampl
TauShotClustersAuxDyn.etamax_sampl
TauShotClustersAuxDyn.phi_sampl
TauShotClustersAuxDyn.phimax_sampl
TauShotClusters_links
TauShotParticleFlowObjects
TauShotParticleFlowObjectsAux.
TauShotParticleFlowObjectsAuxDyn.tauShots_nCellsInEta
TauShotParticleFlowObjectsAuxDyn.tauShots_nPhotons
TauShotParticleFlowObjectsAuxDyn.tauShots_pt1
TauShotParticleFlowObjectsAuxDyn.tauShots_pt3
TauShotParticleFlowObjectsAuxDyn.tauShots_pt5
TauShotParticleFlowObjectsAuxDyn.tauShots_seedHash
TauTracks
TauTracksAux.
TauTracksAuxDyn.CaloSamplingEtaEM
TauTracksAuxDyn.CaloSamplingEtaHad
TauTracksAuxDyn.CaloSamplingPhiEM
TauTracksAuxDyn.CaloSamplingPhiHad
TauTracksAuxDyn.d0SigTJVA
TauTracksAuxDyn.d0TJVA
TauTracksAuxDyn.rnn_chargedScore
TauTracksAuxDyn.rnn_conversionScore
TauTracksAuxDyn.rnn_fakeScore
TauTracksAuxDyn.rnn_isolationScore
TauTracksAuxDyn.z0sinthetaSigTJVA
TauTracksAuxDyn.z0sinthetaTJVA
TileMuObj
Token
TopoClusterIsoCentralEventShape
TopoClusterIsoCentralEventShapeAux.
TopoClusterIsoCentralEventShapeAuxDyn.Density
TopoClusterIsoCentralEventShapeAuxDyn.DensityArea
TopoClusterIsoCentralEventShapeAuxDyn.DensitySigma
TopoClusterIsoForwardEventShape
TopoClusterIsoForwardEventShapeAux.
TopoClusterIsoForwardEventShapeAuxDyn.Density
TopoClusterIsoForwardEventShapeAuxDyn.DensityArea
TopoClusterIsoForwardEventShapeAuxDyn.DensitySigma
TrigConfKeys
TrigConfKeysOnline
TriggerMenuJson_HLT
TriggerMenuJson_HLTAux.
TriggerMenuJson_HLTPS
TriggerMenuJson_HLTPSAux.
TriggerMenuJson_L1
TriggerMenuJson_L1Aux.
TriggerMenuJson_L1PS
TriggerMenuJson_L1PSAux.
TruthEvents
TruthEventsAux.
TruthEventsAuxDyn.PDFID1
TruthEventsAuxDyn.PDFID2
TruthEventsAuxDyn.PDGID1
TruthEventsAuxDyn.PDGID2
TruthEventsAuxDyn.Q
TruthEventsAuxDyn.X1
TruthEventsAuxDyn.X2
TruthEventsAuxDyn.XF1
TruthEventsAuxDyn.XF2
TruthMetaData
TruthMetaDataAux.
TruthParticles
TruthParticlesAux.
TruthParticlesAuxDyn.polarizationPhi
TruthParticlesAuxDyn.polarizationTheta
TruthVertices
TruthVerticesAux.
_Digitization_Parameters
_GLOBAL_BField_Maps
_Generation_Parameters
_Simulation_Parameters
_TagInfo
eElesPerf
eElesPerfAux.
egammaClusters
egammaClustersAux.
egammaClustersAuxDyn.BadChannelList
egammaClustersAuxDyn.CellLink
egammaClustersAuxDyn.ETA1CALOFRAME
egammaClustersAuxDyn.ETA2CALOFRAME
egammaClustersAuxDyn.ETACALOFRAME
egammaClustersAuxDyn.PHI1CALOFRAME
egammaClustersAuxDyn.PHI2CALOFRAME
egammaClustersAuxDyn.PHICALOFRAME
egammaClustersAuxDyn.constituentClusterLinks
egammaClustersAuxDyn.emax_sampl
egammaClustersAuxDyn.eta_sampl
egammaClustersAuxDyn.etamax_sampl
egammaClustersAuxDyn.phi_sampl
egammaClustersAuxDyn.phimax_sampl
egammaClusters_links
egammaTruthParticles
egammaTruthParticlesAux.
egammaTruthParticlesAuxDyn.recoElectronLink
egammaTruthParticlesAuxDyn.recoPhotonLink
egammaTruthParticlesAuxDyn.truthOrigin
egammaTruthParticlesAuxDyn.truthParticleLink
egammaTruthParticlesAuxDyn.truthType
index_ref
index_ref
index_ref
index_ref
index_ref
xTrigDecision
xTrigDecisionAux.
